%YAML 1.1
%TAG !u! tag:unity3d.com,2011:
--- !u!74 &7400000
AnimationClip:
  m_ObjectHideFlags: 0
  m_CorrespondingSourceObject: {fileID: 0}
  m_PrefabInstance: {fileID: 0}
  m_PrefabAsset: {fileID: 0}
  m_Name: ManWhiteBeard
  serializedVersion: 6
  m_Legacy: 0
  m_Compressed: 0
  m_UseHighQualityCurve: 1
  m_RotationCurves: []
  m_CompressedRotationCurves: []
  m_EulerCurves: []
  m_PositionCurves: []
  m_ScaleCurves: []
  m_FloatCurves: []
  m_PPtrCurves:
  - curve:
    - time: 0
      value: {fileID: -9206039781492860674, guid: 9e91bc090b0ca0a41803641e17484c70, type: 3}
    - time: 0.041666668
      value: {fileID: 672456783190127556, guid: 9e91bc090b0ca0a41803641e17484c70, type: 3}
    - time: 0.083333336
      value: {fileID: 6975761816492638306, guid: 9e91bc090b0ca0a41803641e17484c70, type: 3}
    - time: 0.125
      value: {fileID: -1975801785328384508, guid: 9e91bc090b0ca0a41803641e17484c70, type: 3}
    - time: 0.16666667
      value: {fileID: -5094190228822676739, guid: 9e91bc090b0ca0a41803641e17484c70, type: 3}
    - time: 0.20833333
      value: {fileID: -1952770449381650812, guid: 9e91bc090b0ca0a41803641e17484c70, type: 3}
    - time: 0.25
      value: {fileID: 992393450123876674, guid: 9e91bc090b0ca0a41803641e17484c70, type: 3}
    - time: 0.29166666
      value: {fileID: 7172021634759269918, guid: 9e91bc090b0ca0a41803641e17484c70, type: 3}
    - time: 0.33333334
      value: {fileID: 9127928249542244246, guid: 9e91bc090b0ca0a41803641e17484c70, type: 3}
    - time: 0.375
      value: {fileID: 2736539096437572283, guid: 9e91bc090b0ca0a41803641e17484c70, type: 3}
    - time: 0.41666666
      value: {fileID: 6633394118021917949, guid: 9e91bc090b0ca0a41803641e17484c70, type: 3}
    - time: 0.45833334
      value: {fileID: -7559318068741129546, guid: 9e91bc090b0ca0a41803641e17484c70, type: 3}
    - time: 0.5
      value: {fileID: -7528058384623739778, guid: 9e91bc090b0ca0a41803641e17484c70, type: 3}
    - time: 0.5416667
      value: {fileID: 1253006872406959362, guid: 9e91bc090b0ca0a41803641e17484c70, type: 3}
    - time: 0.5833333
      value: {fileID: -7678998309081351705, guid: 9e91bc090b0ca0a41803641e17484c70, type: 3}
    - time: 0.625
      value: {fileID: 4908603833403553108, guid: 9e91bc090b0ca0a41803641e17484c70, type: 3}
    - time: 0.6666667
      value: {fileID: -8824719419960697783, guid: 9e91bc090b0ca0a41803641e17484c70, type: 3}
    - time: 0.7083333
      value: {fileID: -379616775987581254, guid: 9e91bc090b0ca0a41803641e17484c70, type: 3}
    - time: 0.75
      value: {fileID: 1516627536441976777, guid: 9e91bc090b0ca0a41803641e17484c70, type: 3}
    - time: 0.7916667
      value: {fileID: 4355428353112531169, guid: 9e91bc090b0ca0a41803641e17484c70, type: 3}
    - time: 0.8333333
      value: {fileID: -6387065137598309081, guid: 9e91bc090b0ca0a41803641e17484c70, type: 3}
    - time: 0.875
      value: {fileID: 3371160849312573986, guid: 9e91bc090b0ca0a41803641e17484c70, type: 3}
    - time: 0.9166667
      value: {fileID: 4494950836834059717, guid: 9e91bc090b0ca0a41803641e17484c70, type: 3}
    - time: 0.9583333
      value: {fileID: -4505078280489279248, guid: 9e91bc090b0ca0a41803641e17484c70, type: 3}
    - time: 1
      value: {fileID: -1527359741217307954, guid: 9e91bc090b0ca0a41803641e17484c70, type: 3}
    - time: 1.0416666
      value: {fileID: 5594500218189275057, guid: 9e91bc090b0ca0a41803641e17484c70, type: 3}
    - time: 1.0833334
      value: {fileID: 1753087151474187421, guid: 9e91bc090b0ca0a41803641e17484c70, type: 3}
    - time: 1.125
      value: {fileID: -648545242930664240, guid: 9e91bc090b0ca0a41803641e17484c70, type: 3}
    - time: 1.1666666
      value: {fileID: -3564400331200990267, guid: 9e91bc090b0ca0a41803641e17484c70, type: 3}
    - time: 1.2083334
      value: {fileID: -6221076241979314290, guid: 9e91bc090b0ca0a41803641e17484c70, type: 3}
    - time: 1.25
      value: {fileID: 2477022768213593568, guid: 9e91bc090b0ca0a41803641e17484c70, type: 3}
    - time: 1.2916666
      value: {fileID: -2167810775438212265, guid: 9e91bc090b0ca0a41803641e17484c70, type: 3}
    - time: 1.3333334
      value: {fileID: 1813350825117392535, guid: 9e91bc090b0ca0a41803641e17484c70, type: 3}
    - time: 1.375
      value: {fileID: 4014962960833235972, guid: 9e91bc090b0ca0a41803641e17484c70, type: 3}
    - time: 1.4166666
      value: {fileID: 8299731199078125959, guid: 9e91bc090b0ca0a41803641e17484c70, type: 3}
    - time: 1.4583334
      value: {fileID: 5667893508624597461, guid: 9e91bc090b0ca0a41803641e17484c70, type: 3}
    - time: 1.5
      value: {fileID: -8692896953987525238, guid: 9e91bc090b0ca0a41803641e17484c70, type: 3}
    - time: 1.5416666
      value: {fileID: -3169475112652835106, guid: 9e91bc090b0ca0a41803641e17484c70, type: 3}
    - time: 1.5833334
      value: {fileID: -2283631931372485044, guid: 9e91bc090b0ca0a41803641e17484c70, type: 3}
    - time: 1.625
      value: {fileID: 3544918596616133027, guid: 9e91bc090b0ca0a41803641e17484c70, type: 3}
    - time: 1.6666666
      value: {fileID: 5238474345445199821, guid: 9e91bc090b0ca0a41803641e17484c70, type: 3}
    - time: 1.7083334
      value: {fileID: -5211205416238586690, guid: 9e91bc090b0ca0a41803641e17484c70, type: 3}
    - time: 1.75
      value: {fileID: -916601078050308229, guid: 9e91bc090b0ca0a41803641e17484c70, type: 3}
    - time: 1.7916666
      value: {fileID: -1233610030781099168, guid: 9e91bc090b0ca0a41803641e17484c70, type: 3}
    - time: 1.8333334
      value: {fileID: 743692312157177206, guid: 9e91bc090b0ca0a41803641e17484c70, type: 3}
    - time: 1.875
      value: {fileID: -9180449956630004501, guid: 9e91bc090b0ca0a41803641e17484c70, type: 3}
    - time: 1.9166666
      value: {fileID: -6290032614752604114, guid: 9e91bc090b0ca0a41803641e17484c70, type: 3}
    - time: 1.9583334
      value: {fileID: 3553417849085821542, guid: 9e91bc090b0ca0a41803641e17484c70, type: 3}
    attribute: m_Sprite
    path: Symbol
    classID: 114
    script: {fileID: 11500000, guid: 0162a838dc3213a47a61b004398b96ae, type: 3}
  m_SampleRate: 24
  m_WrapMode: 0
  m_Bounds:
    m_Center: {x: 0, y: 0, z: 0}
    m_Extent: {x: 0, y: 0, z: 0}
  m_ClipBindingConstant:
    genericBindings:
    - serializedVersion: 2
      path: 3949212623
      attribute: 2015549526
      script: {fileID: 11500000, guid: 0162a838dc3213a47a61b004398b96ae, type: 3}
      typeID: 114
      customType: 0
      isPPtrCurve: 1
    pptrCurveMapping:
    - {fileID: -9206039781492860674, guid: 9e91bc090b0ca0a41803641e17484c70, type: 3}
    - {fileID: 672456783190127556, guid: 9e91bc090b0ca0a41803641e17484c70, type: 3}
    - {fileID: 6975761816492638306, guid: 9e91bc090b0ca0a41803641e17484c70, type: 3}
    - {fileID: -1975801785328384508, guid: 9e91bc090b0ca0a41803641e17484c70, type: 3}
    - {fileID: -5094190228822676739, guid: 9e91bc090b0ca0a41803641e17484c70, type: 3}
    - {fileID: -1952770449381650812, guid: 9e91bc090b0ca0a41803641e17484c70, type: 3}
    - {fileID: 992393450123876674, guid: 9e91bc090b0ca0a41803641e17484c70, type: 3}
    - {fileID: 7172021634759269918, guid: 9e91bc090b0ca0a41803641e17484c70, type: 3}
    - {fileID: 9127928249542244246, guid: 9e91bc090b0ca0a41803641e17484c70, type: 3}
    - {fileID: 2736539096437572283, guid: 9e91bc090b0ca0a41803641e17484c70, type: 3}
    - {fileID: 6633394118021917949, guid: 9e91bc090b0ca0a41803641e17484c70, type: 3}
    - {fileID: -7559318068741129546, guid: 9e91bc090b0ca0a41803641e17484c70, type: 3}
    - {fileID: -7528058384623739778, guid: 9e91bc090b0ca0a41803641e17484c70, type: 3}
    - {fileID: 1253006872406959362, guid: 9e91bc090b0ca0a41803641e17484c70, type: 3}
    - {fileID: -7678998309081351705, guid: 9e91bc090b0ca0a41803641e17484c70, type: 3}
    - {fileID: 4908603833403553108, guid: 9e91bc090b0ca0a41803641e17484c70, type: 3}
    - {fileID: -8824719419960697783, guid: 9e91bc090b0ca0a41803641e17484c70, type: 3}
    - {fileID: -379616775987581254, guid: 9e91bc090b0ca0a41803641e17484c70, type: 3}
    - {fileID: 1516627536441976777, guid: 9e91bc090b0ca0a41803641e17484c70, type: 3}
    - {fileID: 4355428353112531169, guid: 9e91bc090b0ca0a41803641e17484c70, type: 3}
    - {fileID: -6387065137598309081, guid: 9e91bc090b0ca0a41803641e17484c70, type: 3}
    - {fileID: 3371160849312573986, guid: 9e91bc090b0ca0a41803641e17484c70, type: 3}
    - {fileID: 4494950836834059717, guid: 9e91bc090b0ca0a41803641e17484c70, type: 3}
    - {fileID: -4505078280489279248, guid: 9e91bc090b0ca0a41803641e17484c70, type: 3}
    - {fileID: -1527359741217307954, guid: 9e91bc090b0ca0a41803641e17484c70, type: 3}
    - {fileID: 5594500218189275057, guid: 9e91bc090b0ca0a41803641e17484c70, type: 3}
    - {fileID: 1753087151474187421, guid: 9e91bc090b0ca0a41803641e17484c70, type: 3}
    - {fileID: -648545242930664240, guid: 9e91bc090b0ca0a41803641e17484c70, type: 3}
    - {fileID: -3564400331200990267, guid: 9e91bc090b0ca0a41803641e17484c70, type: 3}
    - {fileID: -6221076241979314290, guid: 9e91bc090b0ca0a41803641e17484c70, type: 3}
    - {fileID: 2477022768213593568, guid: 9e91bc090b0ca0a41803641e17484c70, type: 3}
    - {fileID: -2167810775438212265, guid: 9e91bc090b0ca0a41803641e17484c70, type: 3}
    - {fileID: 1813350825117392535, guid: 9e91bc090b0ca0a41803641e17484c70, type: 3}
    - {fileID: 4014962960833235972, guid: 9e91bc090b0ca0a41803641e17484c70, type: 3}
    - {fileID: 8299731199078125959, guid: 9e91bc090b0ca0a41803641e17484c70, type: 3}
    - {fileID: 5667893508624597461, guid: 9e91bc090b0ca0a41803641e17484c70, type: 3}
    - {fileID: -8692896953987525238, guid: 9e91bc090b0ca0a41803641e17484c70, type: 3}
    - {fileID: -3169475112652835106, guid: 9e91bc090b0ca0a41803641e17484c70, type: 3}
    - {fileID: -2283631931372485044, guid: 9e91bc090b0ca0a41803641e17484c70, type: 3}
    - {fileID: 3544918596616133027, guid: 9e91bc090b0ca0a41803641e17484c70, type: 3}
    - {fileID: 5238474345445199821, guid: 9e91bc090b0ca0a41803641e17484c70, type: 3}
    - {fileID: -5211205416238586690, guid: 9e91bc090b0ca0a41803641e17484c70, type: 3}
    - {fileID: -916601078050308229, guid: 9e91bc090b0ca0a41803641e17484c70, type: 3}
    - {fileID: -1233610030781099168, guid: 9e91bc090b0ca0a41803641e17484c70, type: 3}
    - {fileID: 743692312157177206, guid: 9e91bc090b0ca0a41803641e17484c70, type: 3}
    - {fileID: -9180449956630004501, guid: 9e91bc090b0ca0a41803641e17484c70, type: 3}
    - {fileID: -6290032614752604114, guid: 9e91bc090b0ca0a41803641e17484c70, type: 3}
    - {fileID: 3553417849085821542, guid: 9e91bc090b0ca0a41803641e17484c70, type: 3}
  m_AnimationClipSettings:
    serializedVersion: 2
    m_AdditiveReferencePoseClip: {fileID: 0}
    m_AdditiveReferencePoseTime: 0
    m_StartTime: 0
    m_StopTime: 2
    m_OrientationOffsetY: 0
    m_Level: 0
    m_CycleOffset: 0
    m_HasAdditiveReferencePose: 0
    m_LoopTime: 0
    m_LoopBlend: 0
    m_LoopBlendOrientation: 0
    m_LoopBlendPositionY: 0
    m_LoopBlendPositionXZ: 0
    m_KeepOriginalOrientation: 0
    m_KeepOriginalPositionY: 1
    m_KeepOriginalPositionXZ: 0
    m_HeightFromFeet: 0
    m_Mirror: 0
  m_EditorCurves: []
  m_EulerEditorCurves: []
  m_HasGenericRootTransform: 0
  m_HasMotionFloatCurves: 0
  m_Events:
  - time: 0
    functionName: f_ToogleHighLight
    data: 
    objectReferenceParameter: {fileID: 0}
    floatParameter: 0
    intParameter: 0
    messageOptions: 0
  - time: 1.9583334
    functionName: f_AnimationDone
    data: 
    objectReferenceParameter: {fileID: 0}
    floatParameter: 0
    intParameter: 0
    messageOptions: 0
