%YAML 1.1
%TAG !u! tag:unity3d.com,2011:
--- !u!74 &7400000
AnimationClip:
  m_ObjectHideFlags: 0
  m_CorrespondingSourceObject: {fileID: 0}
  m_PrefabInstance: {fileID: 0}
  m_PrefabAsset: {fileID: 0}
  m_Name: animasi_panel
  serializedVersion: 6
  m_Legacy: 0
  m_Compressed: 0
  m_UseHighQualityCurve: 1
  m_RotationCurves: []
  m_CompressedRotationCurves: []
  m_EulerCurves: []
  m_PositionCurves: []
  m_ScaleCurves: []
  m_FloatCurves:
  - curve:
      serializedVersion: 2
      m_Curve:
      - serializedVersion: 3
        time: 0
        value: 0
        inSlope: 0
        outSlope: 0
        tangentMode: 136
        weightedMode: 0
        inWeight: 0.33333334
        outWeight: 0.33333334
      - serializedVersion: 3
        time: 0.09565217
        value: 0
        inSlope: 0
        outSlope: 0
        tangentMode: 136
        weightedMode: 0
        inWeight: 0.33333334
        outWeight: 0.33333334
      - serializedVersion: 3
        time: 0.104347825
        value: 0.5176471
        inSlope: 16.428572
        outSlope: 16.428572
        tangentMode: 136
        weightedMode: 0
        inWeight: 0.33333334
        outWeight: 0.33333334
      - serializedVersion: 3
        time: 0.15652174
        value: 1
        inSlope: 0
        outSlope: 0
        tangentMode: 136
        weightedMode: 0
        inWeight: 0.33333334
        outWeight: 0.33333334
      - serializedVersion: 3
        time: 0.44347826
        value: 1
        inSlope: 0
        outSlope: 0
        tangentMode: 136
        weightedMode: 0
        inWeight: 0.33333334
        outWeight: 0.33333334
      - serializedVersion: 3
        time: 0.65217394
        value: 0
        inSlope: 0
        outSlope: 0
        tangentMode: 136
        weightedMode: 0
        inWeight: 0.33333334
        outWeight: 0.33333334
      m_PreInfinity: 2
      m_PostInfinity: 2
      m_RotationOrder: 4
    attribute: m_Color.a
    path: 2nd
    classID: 114
    script: {fileID: 11500000, guid: fe87c0e1cc204ed48ad3b37840f39efc, type: 3}
  - curve:
      serializedVersion: 2
      m_Curve:
      - serializedVersion: 3
        time: 0
        value: 0
        inSlope: 0
        outSlope: 0
        tangentMode: 136
        weightedMode: 0
        inWeight: 0.33333334
        outWeight: 0.33333334
      - serializedVersion: 3
        time: 0.2
        value: 0
        inSlope: 0
        outSlope: 0
        tangentMode: 136
        weightedMode: 0
        inWeight: 0.33333334
        outWeight: 0.33333334
      - serializedVersion: 3
        time: 0.20869565
        value: 0.49803922
        inSlope: 16.428574
        outSlope: 16.428574
        tangentMode: 136
        weightedMode: 0
        inWeight: 0.33333334
        outWeight: 0.33333334
      - serializedVersion: 3
        time: 0.26086956
        value: 1
        inSlope: 0
        outSlope: 0
        tangentMode: 136
        weightedMode: 0
        inWeight: 0.33333334
        outWeight: 0.33333334
      - serializedVersion: 3
        time: 0.4695652
        value: 1
        inSlope: 0
        outSlope: 0
        tangentMode: 136
        weightedMode: 0
        inWeight: 0.33333334
        outWeight: 0.33333334
      - serializedVersion: 3
        time: 0.7478261
        value: 0
        inSlope: 0
        outSlope: 0
        tangentMode: 136
        weightedMode: 0
        inWeight: 0.33333334
        outWeight: 0.33333334
      m_PreInfinity: 2
      m_PostInfinity: 2
      m_RotationOrder: 4
    attribute: m_Color.a
    path: 3rd
    classID: 114
    script: {fileID: 11500000, guid: fe87c0e1cc204ed48ad3b37840f39efc, type: 3}
  - curve:
      serializedVersion: 2
      m_Curve:
      - serializedVersion: 3
        time: 0
        value: 0.49019608
        inSlope: 0
        outSlope: 0
        tangentMode: 136
        weightedMode: 0
        inWeight: 0.33333334
        outWeight: 0.33333334
      - serializedVersion: 3
        time: 0.052173913
        value: 1
        inSlope: 0
        outSlope: 0
        tangentMode: 136
        weightedMode: 0
        inWeight: 0.33333334
        outWeight: 0.33333334
      - serializedVersion: 3
        time: 0.4173913
        value: 1
        inSlope: 0
        outSlope: 0
        tangentMode: 136
        weightedMode: 0
        inWeight: 0.33333334
        outWeight: 0.33333334
      - serializedVersion: 3
        time: 0.44347826
        value: 1
        inSlope: 0
        outSlope: 0
        tangentMode: 136
        weightedMode: 0
        inWeight: 0.33333334
        outWeight: 0.33333334
      - serializedVersion: 3
        time: 0.5478261
        value: 0
        inSlope: 0
        outSlope: 0
        tangentMode: 136
        weightedMode: 0
        inWeight: 0.33333334
        outWeight: 0.33333334
      m_PreInfinity: 2
      m_PostInfinity: 2
      m_RotationOrder: 4
    attribute: m_Color.a
    path: 1st
    classID: 114
    script: {fileID: 11500000, guid: fe87c0e1cc204ed48ad3b37840f39efc, type: 3}
  - curve:
      serializedVersion: 2
      m_Curve:
      - serializedVersion: 3
        time: 0
        value: -751
        inSlope: 0
        outSlope: 0
        tangentMode: 136
        weightedMode: 0
        inWeight: 0.33333334
        outWeight: 0.33333334
      - serializedVersion: 3
        time: 0.31304348
        value: 850
        inSlope: 0
        outSlope: 0
        tangentMode: 136
        weightedMode: 0
        inWeight: 0.33333334
        outWeight: 0.33333334
      m_PreInfinity: 2
      m_PostInfinity: 2
      m_RotationOrder: 4
    attribute: m_AnchoredPosition.y
    path: light1
    classID: 224
    script: {fileID: 0}
  - curve:
      serializedVersion: 2
      m_Curve:
      - serializedVersion: 3
        time: 0
        value: -718
        inSlope: 0
        outSlope: 0
        tangentMode: 136
        weightedMode: 0
        inWeight: 0.33333334
        outWeight: 0.33333334
      - serializedVersion: 3
        time: 0.31304348
        value: 850
        inSlope: 0
        outSlope: 0
        tangentMode: 136
        weightedMode: 0
        inWeight: 0.33333334
        outWeight: 0.33333334
      m_PreInfinity: 2
      m_PostInfinity: 2
      m_RotationOrder: 4
    attribute: m_AnchoredPosition.y
    path: light2
    classID: 224
    script: {fileID: 0}
  m_PPtrCurves:
  - curve:
    - time: 0
      value: {fileID: -3331608941189836157, guid: 50e47580a50669b449a6d2b8d9349d08, type: 3}
    - time: 0.026086956
      value: {fileID: 2750195153970596497, guid: 50e47580a50669b449a6d2b8d9349d08, type: 3}
    - time: 0.052173913
      value: {fileID: -1966143429221496408, guid: 50e47580a50669b449a6d2b8d9349d08, type: 3}
    - time: 0.07826087
      value: {fileID: 6667260795036594235, guid: 50e47580a50669b449a6d2b8d9349d08, type: 3}
    - time: 0.104347825
      value: {fileID: 2350009617357948343, guid: 50e47580a50669b449a6d2b8d9349d08, type: 3}
    - time: 0.4173913
      value: {fileID: -1966143429221496408, guid: 50e47580a50669b449a6d2b8d9349d08, type: 3}
    - time: 0.44347826
      value: {fileID: 3642707130113862537, guid: 50e47580a50669b449a6d2b8d9349d08, type: 3}
    - time: 0.4695652
      value: {fileID: -5985821538963692352, guid: 50e47580a50669b449a6d2b8d9349d08, type: 3}
    attribute: m_Sprite
    path: 
    classID: 212
    script: {fileID: 0}
  - curve:
    - time: 0
      value: {fileID: -3331608941189836157, guid: 50e47580a50669b449a6d2b8d9349d08, type: 3}
    - time: 0.026086956
      value: {fileID: 2750195153970596497, guid: 50e47580a50669b449a6d2b8d9349d08, type: 3}
    - time: 0.052173913
      value: {fileID: -5183931010256975632, guid: 50e47580a50669b449a6d2b8d9349d08, type: 3}
    - time: 0.07826087
      value: {fileID: 6667260795036594235, guid: 50e47580a50669b449a6d2b8d9349d08, type: 3}
    - time: 0.104347825
      value: {fileID: 2350009617357948343, guid: 50e47580a50669b449a6d2b8d9349d08, type: 3}
    - time: 0.44347826
      value: {fileID: -1966143429221496408, guid: 50e47580a50669b449a6d2b8d9349d08, type: 3}
    - time: 0.4695652
      value: {fileID: 3642707130113862537, guid: 50e47580a50669b449a6d2b8d9349d08, type: 3}
    - time: 0.49565217
      value: {fileID: -5985821538963692352, guid: 50e47580a50669b449a6d2b8d9349d08, type: 3}
    - time: 0.5217391
      value: {fileID: 6345592312291578313, guid: 50e47580a50669b449a6d2b8d9349d08, type: 3}
    attribute: m_Sprite
    path: 1st
    classID: 114
    script: {fileID: 11500000, guid: fe87c0e1cc204ed48ad3b37840f39efc, type: 3}
  - curve:
    - time: 0
      value: {fileID: -3331608941189836157, guid: 50e47580a50669b449a6d2b8d9349d08, type: 3}
    - time: 0.104347825
      value: {fileID: -3331608941189836157, guid: 50e47580a50669b449a6d2b8d9349d08, type: 3}
    - time: 0.13043478
      value: {fileID: 2750195153970596497, guid: 50e47580a50669b449a6d2b8d9349d08, type: 3}
    - time: 0.15652174
      value: {fileID: -5183931010256975632, guid: 50e47580a50669b449a6d2b8d9349d08, type: 3}
    - time: 0.1826087
      value: {fileID: 6667260795036594235, guid: 50e47580a50669b449a6d2b8d9349d08, type: 3}
    - time: 0.20869565
      value: {fileID: 2350009617357948343, guid: 50e47580a50669b449a6d2b8d9349d08, type: 3}
    - time: 0.4173913
      value: {fileID: 2350009617357948343, guid: 50e47580a50669b449a6d2b8d9349d08, type: 3}
    - time: 0.5478261
      value: {fileID: -1966143429221496408, guid: 50e47580a50669b449a6d2b8d9349d08, type: 3}
    - time: 0.57391304
      value: {fileID: 3642707130113862537, guid: 50e47580a50669b449a6d2b8d9349d08, type: 3}
    - time: 0.6
      value: {fileID: -5985821538963692352, guid: 50e47580a50669b449a6d2b8d9349d08, type: 3}
    - time: 0.62608695
      value: {fileID: 6345592312291578313, guid: 50e47580a50669b449a6d2b8d9349d08, type: 3}
    attribute: m_Sprite
    path: 2nd
    classID: 114
    script: {fileID: 11500000, guid: fe87c0e1cc204ed48ad3b37840f39efc, type: 3}
  - curve:
    - time: 0
      value: {fileID: -3331608941189836157, guid: 50e47580a50669b449a6d2b8d9349d08, type: 3}
    - time: 0.20869565
      value: {fileID: -3331608941189836157, guid: 50e47580a50669b449a6d2b8d9349d08, type: 3}
    - time: 0.2347826
      value: {fileID: 2750195153970596497, guid: 50e47580a50669b449a6d2b8d9349d08, type: 3}
    - time: 0.26086956
      value: {fileID: -5183931010256975632, guid: 50e47580a50669b449a6d2b8d9349d08, type: 3}
    - time: 0.28695652
      value: {fileID: 6667260795036594235, guid: 50e47580a50669b449a6d2b8d9349d08, type: 3}
    - time: 0.31304348
      value: {fileID: 2350009617357948343, guid: 50e47580a50669b449a6d2b8d9349d08, type: 3}
    - time: 0.65217394
      value: {fileID: -1966143429221496408, guid: 50e47580a50669b449a6d2b8d9349d08, type: 3}
    - time: 0.67826086
      value: {fileID: 3642707130113862537, guid: 50e47580a50669b449a6d2b8d9349d08, type: 3}
    - time: 0.70434785
      value: {fileID: -5985821538963692352, guid: 50e47580a50669b449a6d2b8d9349d08, type: 3}
    - time: 0.7304348
      value: {fileID: 6345592312291578313, guid: 50e47580a50669b449a6d2b8d9349d08, type: 3}
    attribute: m_Sprite
    path: 3rd
    classID: 114
    script: {fileID: 11500000, guid: fe87c0e1cc204ed48ad3b37840f39efc, type: 3}
  m_SampleRate: 115
  m_WrapMode: 0
  m_Bounds:
    m_Center: {x: 0, y: 0, z: 0}
    m_Extent: {x: 0, y: 0, z: 0}
  m_ClipBindingConstant:
    genericBindings:
    - serializedVersion: 2
      path: 1762593668
      attribute: 304273561
      script: {fileID: 11500000, guid: fe87c0e1cc204ed48ad3b37840f39efc, type: 3}
      typeID: 114
      customType: 0
      isPPtrCurve: 0
    - serializedVersion: 2
      path: 2394569966
      attribute: 304273561
      script: {fileID: 11500000, guid: fe87c0e1cc204ed48ad3b37840f39efc, type: 3}
      typeID: 114
      customType: 0
      isPPtrCurve: 0
    - serializedVersion: 2
      path: 2308098469
      attribute: 304273561
      script: {fileID: 11500000, guid: fe87c0e1cc204ed48ad3b37840f39efc, type: 3}
      typeID: 114
      customType: 0
      isPPtrCurve: 0
    - serializedVersion: 2
      path: 2691600980
      attribute: 538195251
      script: {fileID: 0}
      typeID: 224
      customType: 28
      isPPtrCurve: 0
    - serializedVersion: 2
      path: 963101678
      attribute: 538195251
      script: {fileID: 0}
      typeID: 224
      customType: 28
      isPPtrCurve: 0
    - serializedVersion: 2
      path: 0
      attribute: 0
      script: {fileID: 0}
      typeID: 212
      customType: 23
      isPPtrCurve: 1
    - serializedVersion: 2
      path: 2308098469
      attribute: 2015549526
      script: {fileID: 11500000, guid: fe87c0e1cc204ed48ad3b37840f39efc, type: 3}
      typeID: 114
      customType: 0
      isPPtrCurve: 1
    - serializedVersion: 2
      path: 1762593668
      attribute: 2015549526
      script: {fileID: 11500000, guid: fe87c0e1cc204ed48ad3b37840f39efc, type: 3}
      typeID: 114
      customType: 0
      isPPtrCurve: 1
    - serializedVersion: 2
      path: 2394569966
      attribute: 2015549526
      script: {fileID: 11500000, guid: fe87c0e1cc204ed48ad3b37840f39efc, type: 3}
      typeID: 114
      customType: 0
      isPPtrCurve: 1
    pptrCurveMapping:
    - {fileID: -3331608941189836157, guid: 50e47580a50669b449a6d2b8d9349d08, type: 3}
    - {fileID: 2750195153970596497, guid: 50e47580a50669b449a6d2b8d9349d08, type: 3}
    - {fileID: -1966143429221496408, guid: 50e47580a50669b449a6d2b8d9349d08, type: 3}
    - {fileID: 6667260795036594235, guid: 50e47580a50669b449a6d2b8d9349d08, type: 3}
    - {fileID: 2350009617357948343, guid: 50e47580a50669b449a6d2b8d9349d08, type: 3}
    - {fileID: -1966143429221496408, guid: 50e47580a50669b449a6d2b8d9349d08, type: 3}
    - {fileID: 3642707130113862537, guid: 50e47580a50669b449a6d2b8d9349d08, type: 3}
    - {fileID: -5985821538963692352, guid: 50e47580a50669b449a6d2b8d9349d08, type: 3}
    - {fileID: -3331608941189836157, guid: 50e47580a50669b449a6d2b8d9349d08, type: 3}
    - {fileID: 2750195153970596497, guid: 50e47580a50669b449a6d2b8d9349d08, type: 3}
    - {fileID: -5183931010256975632, guid: 50e47580a50669b449a6d2b8d9349d08, type: 3}
    - {fileID: 6667260795036594235, guid: 50e47580a50669b449a6d2b8d9349d08, type: 3}
    - {fileID: 2350009617357948343, guid: 50e47580a50669b449a6d2b8d9349d08, type: 3}
    - {fileID: -1966143429221496408, guid: 50e47580a50669b449a6d2b8d9349d08, type: 3}
    - {fileID: 3642707130113862537, guid: 50e47580a50669b449a6d2b8d9349d08, type: 3}
    - {fileID: -5985821538963692352, guid: 50e47580a50669b449a6d2b8d9349d08, type: 3}
    - {fileID: 6345592312291578313, guid: 50e47580a50669b449a6d2b8d9349d08, type: 3}
    - {fileID: -3331608941189836157, guid: 50e47580a50669b449a6d2b8d9349d08, type: 3}
    - {fileID: -3331608941189836157, guid: 50e47580a50669b449a6d2b8d9349d08, type: 3}
    - {fileID: 2750195153970596497, guid: 50e47580a50669b449a6d2b8d9349d08, type: 3}
    - {fileID: -5183931010256975632, guid: 50e47580a50669b449a6d2b8d9349d08, type: 3}
    - {fileID: 6667260795036594235, guid: 50e47580a50669b449a6d2b8d9349d08, type: 3}
    - {fileID: 2350009617357948343, guid: 50e47580a50669b449a6d2b8d9349d08, type: 3}
    - {fileID: 2350009617357948343, guid: 50e47580a50669b449a6d2b8d9349d08, type: 3}
    - {fileID: -1966143429221496408, guid: 50e47580a50669b449a6d2b8d9349d08, type: 3}
    - {fileID: 3642707130113862537, guid: 50e47580a50669b449a6d2b8d9349d08, type: 3}
    - {fileID: -5985821538963692352, guid: 50e47580a50669b449a6d2b8d9349d08, type: 3}
    - {fileID: 6345592312291578313, guid: 50e47580a50669b449a6d2b8d9349d08, type: 3}
    - {fileID: -3331608941189836157, guid: 50e47580a50669b449a6d2b8d9349d08, type: 3}
    - {fileID: -3331608941189836157, guid: 50e47580a50669b449a6d2b8d9349d08, type: 3}
    - {fileID: 2750195153970596497, guid: 50e47580a50669b449a6d2b8d9349d08, type: 3}
    - {fileID: -5183931010256975632, guid: 50e47580a50669b449a6d2b8d9349d08, type: 3}
    - {fileID: 6667260795036594235, guid: 50e47580a50669b449a6d2b8d9349d08, type: 3}
    - {fileID: 2350009617357948343, guid: 50e47580a50669b449a6d2b8d9349d08, type: 3}
    - {fileID: -1966143429221496408, guid: 50e47580a50669b449a6d2b8d9349d08, type: 3}
    - {fileID: 3642707130113862537, guid: 50e47580a50669b449a6d2b8d9349d08, type: 3}
    - {fileID: -5985821538963692352, guid: 50e47580a50669b449a6d2b8d9349d08, type: 3}
    - {fileID: 6345592312291578313, guid: 50e47580a50669b449a6d2b8d9349d08, type: 3}
  m_AnimationClipSettings:
    serializedVersion: 2
    m_AdditiveReferencePoseClip: {fileID: 0}
    m_AdditiveReferencePoseTime: 0
    m_StartTime: 0
    m_StopTime: 0.7478261
    m_OrientationOffsetY: 0
    m_Level: 0
    m_CycleOffset: 0
    m_HasAdditiveReferencePose: 0
    m_LoopTime: 1
    m_LoopBlend: 0
    m_LoopBlendOrientation: 0
    m_LoopBlendPositionY: 0
    m_LoopBlendPositionXZ: 0
    m_KeepOriginalOrientation: 0
    m_KeepOriginalPositionY: 1
    m_KeepOriginalPositionXZ: 0
    m_HeightFromFeet: 0
    m_Mirror: 0
  m_EditorCurves:
  - curve:
      serializedVersion: 2
      m_Curve:
      - serializedVersion: 3
        time: 0
        value: 0
        inSlope: 0
        outSlope: 0
        tangentMode: 136
        weightedMode: 0
        inWeight: 0.33333334
        outWeight: 0.33333334
      - serializedVersion: 3
        time: 0.09565217
        value: 0
        inSlope: 0
        outSlope: 0
        tangentMode: 136
        weightedMode: 0
        inWeight: 0.33333334
        outWeight: 0.33333334
      - serializedVersion: 3
        time: 0.104347825
        value: 0.5176471
        inSlope: 16.428572
        outSlope: 16.428572
        tangentMode: 136
        weightedMode: 0
        inWeight: 0.33333334
        outWeight: 0.33333334
      - serializedVersion: 3
        time: 0.15652174
        value: 1
        inSlope: 0
        outSlope: 0
        tangentMode: 136
        weightedMode: 0
        inWeight: 0.33333334
        outWeight: 0.33333334
      - serializedVersion: 3
        time: 0.44347826
        value: 1
        inSlope: 0
        outSlope: 0
        tangentMode: 136
        weightedMode: 0
        inWeight: 0.33333334
        outWeight: 0.33333334
      - serializedVersion: 3
        time: 0.65217394
        value: 0
        inSlope: 0
        outSlope: 0
        tangentMode: 136
        weightedMode: 0
        inWeight: 0.33333334
        outWeight: 0.33333334
      m_PreInfinity: 2
      m_PostInfinity: 2
      m_RotationOrder: 4
    attribute: m_Color.a
    path: 2nd
    classID: 114
    script: {fileID: 11500000, guid: fe87c0e1cc204ed48ad3b37840f39efc, type: 3}
  - curve:
      serializedVersion: 2
      m_Curve:
      - serializedVersion: 3
        time: 0
        value: 0
        inSlope: 0
        outSlope: 0
        tangentMode: 136
        weightedMode: 0
        inWeight: 0.33333334
        outWeight: 0.33333334
      - serializedVersion: 3
        time: 0.2
        value: 0
        inSlope: 0
        outSlope: 0
        tangentMode: 136
        weightedMode: 0
        inWeight: 0.33333334
        outWeight: 0.33333334
      - serializedVersion: 3
        time: 0.20869565
        value: 0.49803922
        inSlope: 16.428574
        outSlope: 16.428574
        tangentMode: 136
        weightedMode: 0
        inWeight: 0.33333334
        outWeight: 0.33333334
      - serializedVersion: 3
        time: 0.26086956
        value: 1
        inSlope: 0
        outSlope: 0
        tangentMode: 136
        weightedMode: 0
        inWeight: 0.33333334
        outWeight: 0.33333334
      - serializedVersion: 3
        time: 0.4695652
        value: 1
        inSlope: 0
        outSlope: 0
        tangentMode: 136
        weightedMode: 0
        inWeight: 0.33333334
        outWeight: 0.33333334
      - serializedVersion: 3
        time: 0.7478261
        value: 0
        inSlope: 0
        outSlope: 0
        tangentMode: 136
        weightedMode: 0
        inWeight: 0.33333334
        outWeight: 0.33333334
      m_PreInfinity: 2
      m_PostInfinity: 2
      m_RotationOrder: 4
    attribute: m_Color.a
    path: 3rd
    classID: 114
    script: {fileID: 11500000, guid: fe87c0e1cc204ed48ad3b37840f39efc, type: 3}
  - curve:
      serializedVersion: 2
      m_Curve:
      - serializedVersion: 3
        time: 0
        value: 0.49019608
        inSlope: 0
        outSlope: 0
        tangentMode: 136
        weightedMode: 0
        inWeight: 0.33333334
        outWeight: 0.33333334
      - serializedVersion: 3
        time: 0.052173913
        value: 1
        inSlope: 0
        outSlope: 0
        tangentMode: 136
        weightedMode: 0
        inWeight: 0.33333334
        outWeight: 0.33333334
      - serializedVersion: 3
        time: 0.4173913
        value: 1
        inSlope: 0
        outSlope: 0
        tangentMode: 136
        weightedMode: 0
        inWeight: 0.33333334
        outWeight: 0.33333334
      - serializedVersion: 3
        time: 0.44347826
        value: 1
        inSlope: 0
        outSlope: 0
        tangentMode: 136
        weightedMode: 0
        inWeight: 0.33333334
        outWeight: 0.33333334
      - serializedVersion: 3
        time: 0.5478261
        value: 0
        inSlope: 0
        outSlope: 0
        tangentMode: 136
        weightedMode: 0
        inWeight: 0.33333334
        outWeight: 0.33333334
      m_PreInfinity: 2
      m_PostInfinity: 2
      m_RotationOrder: 4
    attribute: m_Color.a
    path: 1st
    classID: 114
    script: {fileID: 11500000, guid: fe87c0e1cc204ed48ad3b37840f39efc, type: 3}
  - curve:
      serializedVersion: 2
      m_Curve:
      - serializedVersion: 3
        time: 0
        value: -751
        inSlope: 0
        outSlope: 0
        tangentMode: 136
        weightedMode: 0
        inWeight: 0.33333334
        outWeight: 0.33333334
      - serializedVersion: 3
        time: 0.31304348
        value: 850
        inSlope: 0
        outSlope: 0
        tangentMode: 136
        weightedMode: 0
        inWeight: 0.33333334
        outWeight: 0.33333334
      m_PreInfinity: 2
      m_PostInfinity: 2
      m_RotationOrder: 4
    attribute: m_AnchoredPosition.y
    path: light1
    classID: 224
    script: {fileID: 0}
  - curve:
      serializedVersion: 2
      m_Curve:
      - serializedVersion: 3
        time: 0
        value: -718
        inSlope: 0
        outSlope: 0
        tangentMode: 136
        weightedMode: 0
        inWeight: 0.33333334
        outWeight: 0.33333334
      - serializedVersion: 3
        time: 0.31304348
        value: 850
        inSlope: 0
        outSlope: 0
        tangentMode: 136
        weightedMode: 0
        inWeight: 0.33333334
        outWeight: 0.33333334
      m_PreInfinity: 2
      m_PostInfinity: 2
      m_RotationOrder: 4
    attribute: m_AnchoredPosition.y
    path: light2
    classID: 224
    script: {fileID: 0}
  m_EulerEditorCurves: []
  m_HasGenericRootTransform: 0
  m_HasMotionFloatCurves: 0
  m_Events:
  - time: 0.33043477
    functionName: f_SetFinal
    data: 
    objectReferenceParameter: {fileID: 0}
    floatParameter: 0
    intParameter: 0
    messageOptions: 0
  - time: 0.7478261
    functionName: f_Deactivate
    data: 
    objectReferenceParameter: {fileID: 0}
    floatParameter: 0
    intParameter: 0
    messageOptions: 0
