%YAML 1.1
%TAG !u! tag:unity3d.com,2011:
--- !u!29 &1
OcclusionCullingSettings:
  m_ObjectHideFlags: 0
  serializedVersion: 2
  m_OcclusionBakeSettings:
    smallestOccluder: 5
    smallestHole: 0.25
    backfaceThreshold: 100
  m_SceneGUID: 00000000000000000000000000000000
  m_OcclusionCullingData: {fileID: 0}
--- !u!104 &2
RenderSettings:
  m_ObjectHideFlags: 0
  serializedVersion: 9
  m_Fog: 0
  m_FogColor: {r: 0.5, g: 0.5, b: 0.5, a: 1}
  m_FogMode: 3
  m_FogDensity: 0.01
  m_LinearFogStart: 0
  m_LinearFogEnd: 300
  m_AmbientSkyColor: {r: 0.212, g: 0.227, b: 0.259, a: 1}
  m_AmbientEquatorColor: {r: 0.114, g: 0.125, b: 0.133, a: 1}
  m_AmbientGroundColor: {r: 0.047, g: 0.043, b: 0.035, a: 1}
  m_AmbientIntensity: 1
  m_AmbientMode: 0
  m_SubtractiveShadowColor: {r: 0.42, g: 0.478, b: 0.627, a: 1}
  m_SkyboxMaterial: {fileID: 10304, guid: 0000000000000000f000000000000000, type: 0}
  m_HaloStrength: 0.5
  m_FlareStrength: 1
  m_FlareFadeSpeed: 3
  m_HaloTexture: {fileID: 0}
  m_SpotCookie: {fileID: 10001, guid: 0000000000000000e000000000000000, type: 0}
  m_DefaultReflectionMode: 0
  m_DefaultReflectionResolution: 128
  m_ReflectionBounces: 1
  m_ReflectionIntensity: 1
  m_CustomReflection: {fileID: 0}
  m_Sun: {fileID: 0}
  m_IndirectSpecularColor: {r: 0, g: 0, b: 0, a: 1}
  m_UseRadianceAmbientProbe: 0
--- !u!157 &3
LightmapSettings:
  m_ObjectHideFlags: 0
  serializedVersion: 12
  m_GIWorkflowMode: 1
  m_GISettings:
    serializedVersion: 2
    m_BounceScale: 1
    m_IndirectOutputScale: 1
    m_AlbedoBoost: 1
    m_EnvironmentLightingMode: 0
    m_EnableBakedLightmaps: 1
    m_EnableRealtimeLightmaps: 0
  m_LightmapEditorSettings:
    serializedVersion: 12
    m_Resolution: 2
    m_BakeResolution: 40
    m_AtlasSize: 1024
    m_AO: 0
    m_AOMaxDistance: 1
    m_CompAOExponent: 1
    m_CompAOExponentDirect: 0
    m_ExtractAmbientOcclusion: 0
    m_Padding: 2
    m_LightmapParameters: {fileID: 0}
    m_LightmapsBakeMode: 1
    m_TextureCompression: 1
    m_FinalGather: 0
    m_FinalGatherFiltering: 1
    m_FinalGatherRayCount: 256
    m_ReflectionCompression: 2
    m_MixedBakeMode: 2
    m_BakeBackend: 1
    m_PVRSampling: 1
    m_PVRDirectSampleCount: 32
    m_PVRSampleCount: 512
    m_PVRBounces: 2
    m_PVREnvironmentSampleCount: 256
    m_PVREnvironmentReferencePointCount: 2048
    m_PVRFilteringMode: 1
    m_PVRDenoiserTypeDirect: 1
    m_PVRDenoiserTypeIndirect: 1
    m_PVRDenoiserTypeAO: 1
    m_PVRFilterTypeDirect: 0
    m_PVRFilterTypeIndirect: 0
    m_PVRFilterTypeAO: 0
    m_PVREnvironmentMIS: 1
    m_PVRCulling: 1
    m_PVRFilteringGaussRadiusDirect: 1
    m_PVRFilteringGaussRadiusIndirect: 5
    m_PVRFilteringGaussRadiusAO: 2
    m_PVRFilteringAtrousPositionSigmaDirect: 0.5
    m_PVRFilteringAtrousPositionSigmaIndirect: 2
    m_PVRFilteringAtrousPositionSigmaAO: 1
    m_ExportTrainingData: 0
    m_TrainingDataDestination: TrainingData
    m_LightProbeSampleCountMultiplier: 4
  m_LightingDataAsset: {fileID: 0}
  m_LightingSettings: {fileID: 0}
--- !u!196 &4
NavMeshSettings:
  serializedVersion: 2
  m_ObjectHideFlags: 0
  m_BuildSettings:
    serializedVersion: 2
    agentTypeID: 0
    agentRadius: 0.5
    agentHeight: 2
    agentSlope: 45
    agentClimb: 0.4
    ledgeDropHeight: 0
    maxJumpAcrossDistance: 0
    minRegionArea: 2
    manualCellSize: 0
    cellSize: 0.16666667
    manualTileSize: 0
    tileSize: 256
    accuratePlacement: 0
    maxJobWorkers: 0
    preserveTilesOutsideBounds: 0
    debug:
      m_Flags: 0
  m_NavMeshData: {fileID: 0}
--- !u!224 &19152117 stripped
RectTransform:
  m_CorrespondingSourceObject: {fileID: 5696163907010661702, guid: 836cc0eb0277ce44d8b045dba86c2239, type: 3}
  m_PrefabInstance: {fileID: 5696163906995728819}
  m_PrefabAsset: {fileID: 0}
--- !u!1 &926702081
GameObject:
  m_ObjectHideFlags: 0
  m_CorrespondingSourceObject: {fileID: 0}
  m_PrefabInstance: {fileID: 0}
  m_PrefabAsset: {fileID: 0}
  serializedVersion: 6
  m_Component:
  - component: {fileID: 926702084}
  - component: {fileID: 926702083}
  - component: {fileID: 926702082}
  m_Layer: 0
  m_Name: EventSystem
  m_TagString: Untagged
  m_Icon: {fileID: 0}
  m_NavMeshLayer: 0
  m_StaticEditorFlags: 0
  m_IsActive: 1
--- !u!114 &926702082
MonoBehaviour:
  m_ObjectHideFlags: 0
  m_CorrespondingSourceObject: {fileID: 0}
  m_PrefabInstance: {fileID: 0}
  m_PrefabAsset: {fileID: 0}
  m_GameObject: {fileID: 926702081}
  m_Enabled: 1
  m_EditorHideFlags: 0
  m_Script: {fileID: 11500000, guid: 4f231c4fb786f3946a6b90b886c48677, type: 3}
  m_Name: 
  m_EditorClassIdentifier: 
  m_HorizontalAxis: Horizontal
  m_VerticalAxis: Vertical
  m_SubmitButton: Submit
  m_CancelButton: Cancel
  m_InputActionsPerSecond: 10
  m_RepeatDelay: 0.5
  m_ForceModuleActive: 0
--- !u!114 &926702083
MonoBehaviour:
  m_ObjectHideFlags: 0
  m_CorrespondingSourceObject: {fileID: 0}
  m_PrefabInstance: {fileID: 0}
  m_PrefabAsset: {fileID: 0}
  m_GameObject: {fileID: 926702081}
  m_Enabled: 1
  m_EditorHideFlags: 0
  m_Script: {fileID: 11500000, guid: 76c392e42b5098c458856cdf6ecaaaa1, type: 3}
  m_Name: 
  m_EditorClassIdentifier: 
  m_FirstSelected: {fileID: 0}
  m_sendNavigationEvents: 1
  m_DragThreshold: 10
--- !u!4 &926702084
Transform:
  m_ObjectHideFlags: 0
  m_CorrespondingSourceObject: {fileID: 0}
  m_PrefabInstance: {fileID: 0}
  m_PrefabAsset: {fileID: 0}
  m_GameObject: {fileID: 926702081}
  m_LocalRotation: {x: 0, y: 0, z: 0, w: 1}
  m_LocalPosition: {x: 0, y: 0, z: 0}
  m_LocalScale: {x: 1, y: 1, z: 1}
  m_Children: []
  m_Father: {fileID: 0}
  m_RootOrder: 3
  m_LocalEulerAnglesHint: {x: 0, y: 0, z: 0}
--- !u!224 &971757661 stripped
RectTransform:
  m_CorrespondingSourceObject: {fileID: 1565208349620613629, guid: 5bf94f342fa4f324bb6af4cb2169e22c, type: 3}
  m_PrefabInstance: {fileID: 1565208348695423392}
  m_PrefabAsset: {fileID: 0}
--- !u!224 &978715855 stripped
RectTransform:
  m_CorrespondingSourceObject: {fileID: 1259868443245304778, guid: 3f8687fb3dacfc640850f042f1d58b9f, type: 3}
  m_PrefabInstance: {fileID: 1259868443877465861}
  m_PrefabAsset: {fileID: 0}
--- !u!1 &1002365450
GameObject:
  m_ObjectHideFlags: 0
  m_CorrespondingSourceObject: {fileID: 0}
  m_PrefabInstance: {fileID: 0}
  m_PrefabAsset: {fileID: 0}
  serializedVersion: 6
  m_Component:
  - component: {fileID: 1002365452}
  - component: {fileID: 1002365451}
  m_Layer: 0
  m_Name: Directional Light
  m_TagString: Untagged
  m_Icon: {fileID: 0}
  m_NavMeshLayer: 0
  m_StaticEditorFlags: 0
  m_IsActive: 1
--- !u!108 &1002365451
Light:
  m_ObjectHideFlags: 0
  m_CorrespondingSourceObject: {fileID: 0}
  m_PrefabInstance: {fileID: 0}
  m_PrefabAsset: {fileID: 0}
  m_GameObject: {fileID: 1002365450}
  m_Enabled: 1
  serializedVersion: 10
  m_Type: 1
  m_Shape: 0
  m_Color: {r: 1, g: 0.95686275, b: 0.8392157, a: 1}
  m_Intensity: 1
  m_Range: 10
  m_SpotAngle: 30
  m_InnerSpotAngle: 21.80208
  m_CookieSize: 10
  m_Shadows:
    m_Type: 2
    m_Resolution: -1
    m_CustomResolution: -1
    m_Strength: 1
    m_Bias: 0.05
    m_NormalBias: 0.4
    m_NearPlane: 0.2
    m_CullingMatrixOverride:
      e00: 1
      e01: 0
      e02: 0
      e03: 0
      e10: 0
      e11: 1
      e12: 0
      e13: 0
      e20: 0
      e21: 0
      e22: 1
      e23: 0
      e30: 0
      e31: 0
      e32: 0
      e33: 1
    m_UseCullingMatrixOverride: 0
  m_Cookie: {fileID: 0}
  m_DrawHalo: 0
  m_Flare: {fileID: 0}
  m_RenderMode: 0
  m_CullingMask:
    serializedVersion: 2
    m_Bits: 4294967295
  m_RenderingLayerMask: 1
  m_Lightmapping: 4
  m_LightShadowCasterMode: 0
  m_AreaSize: {x: 1, y: 1}
  m_BounceIntensity: 1
  m_ColorTemperature: 6570
  m_UseColorTemperature: 0
  m_BoundingSphereOverride: {x: 0, y: 0, z: 0, w: 0}
  m_UseBoundingSphereOverride: 0
  m_ShadowRadius: 0
  m_ShadowAngle: 0
--- !u!4 &1002365452
Transform:
  m_ObjectHideFlags: 0
  m_CorrespondingSourceObject: {fileID: 0}
  m_PrefabInstance: {fileID: 0}
  m_PrefabAsset: {fileID: 0}
  m_GameObject: {fileID: 1002365450}
  m_LocalRotation: {x: 0.40821788, y: -0.23456968, z: 0.10938163, w: 0.8754261}
  m_LocalPosition: {x: 0, y: 3, z: 0}
  m_LocalScale: {x: 1, y: 1, z: 1}
  m_Children: []
  m_Father: {fileID: 0}
  m_RootOrder: 1
  m_LocalEulerAnglesHint: {x: 50, y: -30, z: 0}
--- !u!224 &1104031881 stripped
RectTransform:
  m_CorrespondingSourceObject: {fileID: 5049809183191021266, guid: a77061f581ded1740b8169a16fe72097, type: 3}
  m_PrefabInstance: {fileID: 5049809182095902299}
  m_PrefabAsset: {fileID: 0}
--- !u!1 &1553188537
GameObject:
  m_ObjectHideFlags: 0
  m_CorrespondingSourceObject: {fileID: 0}
  m_PrefabInstance: {fileID: 0}
  m_PrefabAsset: {fileID: 0}
  serializedVersion: 6
  m_Component:
  - component: {fileID: 1553188541}
  - component: {fileID: 1553188540}
  - component: {fileID: 1553188539}
  - component: {fileID: 1553188538}
  m_Layer: 5
  m_Name: Canvas
  m_TagString: Untagged
  m_Icon: {fileID: 0}
  m_NavMeshLayer: 0
  m_StaticEditorFlags: 0
  m_IsActive: 1
--- !u!114 &1553188538
MonoBehaviour:
  m_ObjectHideFlags: 0
  m_CorrespondingSourceObject: {fileID: 0}
  m_PrefabInstance: {fileID: 0}
  m_PrefabAsset: {fileID: 0}
  m_GameObject: {fileID: 1553188537}
  m_Enabled: 1
  m_EditorHideFlags: 0
  m_Script: {fileID: 11500000, guid: dc42784cf147c0c48a680349fa168899, type: 3}
  m_Name: 
  m_EditorClassIdentifier: 
  m_IgnoreReversedGraphics: 1
  m_BlockingObjects: 0
  m_BlockingMask:
    serializedVersion: 2
    m_Bits: 4294967295
--- !u!114 &1553188539
MonoBehaviour:
  m_ObjectHideFlags: 0
  m_CorrespondingSourceObject: {fileID: 0}
  m_PrefabInstance: {fileID: 0}
  m_PrefabAsset: {fileID: 0}
  m_GameObject: {fileID: 1553188537}
  m_Enabled: 1
  m_EditorHideFlags: 0
  m_Script: {fileID: 11500000, guid: 0cd44c1031e13a943bb63640046fad76, type: 3}
  m_Name: 
  m_EditorClassIdentifier: 
  m_UiScaleMode: 1
  m_ReferencePixelsPerUnit: 100
  m_ScaleFactor: 1
  m_ReferenceResolution: {x: 1600, y: 900}
  m_ScreenMatchMode: 0
  m_MatchWidthOrHeight: 0
  m_PhysicalUnit: 3
  m_FallbackScreenDPI: 96
  m_DefaultSpriteDPI: 96
  m_DynamicPixelsPerUnit: 1
--- !u!223 &1553188540
Canvas:
  m_ObjectHideFlags: 0
  m_CorrespondingSourceObject: {fileID: 0}
  m_PrefabInstance: {fileID: 0}
  m_PrefabAsset: {fileID: 0}
  m_GameObject: {fileID: 1553188537}
  m_Enabled: 1
  serializedVersion: 3
  m_RenderMode: 1
  m_Camera: {fileID: 1754447010}
  m_PlaneDistance: 100
  m_PixelPerfect: 0
  m_ReceivesEvents: 1
  m_OverrideSorting: 0
  m_OverridePixelPerfect: 0
  m_SortingBucketNormalizedSize: 0
  m_AdditionalShaderChannelsFlag: 0
  m_SortingLayerID: 0
  m_SortingOrder: 0
  m_TargetDisplay: 0
--- !u!224 &1553188541
RectTransform:
  m_ObjectHideFlags: 0
  m_CorrespondingSourceObject: {fileID: 0}
  m_PrefabInstance: {fileID: 0}
  m_PrefabAsset: {fileID: 0}
  m_GameObject: {fileID: 1553188537}
  m_LocalRotation: {x: 0, y: 0, z: 0, w: 1}
  m_LocalPosition: {x: 0, y: 0, z: 0}
  m_LocalScale: {x: 0, y: 0, z: 0}
  m_Children:
  - {fileID: 1615790057}
  - {fileID: 1862911549}
  - {fileID: 1779578190}
  - {fileID: 971757661}
  - {fileID: 1104031881}
  - {fileID: 1744955767}
  - {fileID: 19152117}
  - {fileID: 978715855}
  - {fileID: 2028685964}
  m_Father: {fileID: 0}
  m_RootOrder: 2
  m_LocalEulerAnglesHint: {x: 0, y: 0, z: 0}
  m_AnchorMin: {x: 0, y: 0}
  m_AnchorMax: {x: 0, y: 0}
  m_AnchoredPosition: {x: 0, y: 0}
  m_SizeDelta: {x: 0, y: 0}
  m_Pivot: {x: 0, y: 0}
--- !u!224 &1615790057 stripped
RectTransform:
  m_CorrespondingSourceObject: {fileID: 3729094424579156449, guid: fcddce2b1e15a0c45a5e66434e94dc6e, type: 3}
  m_PrefabInstance: {fileID: 3729094426184701448}
  m_PrefabAsset: {fileID: 0}
--- !u!224 &1744955767 stripped
RectTransform:
  m_CorrespondingSourceObject: {fileID: 776226742669930724, guid: 67c96c005872eb640935759dcb8f10fa, type: 3}
  m_PrefabInstance: {fileID: 776226744146205075}
  m_PrefabAsset: {fileID: 0}
--- !u!1 &1754447009
GameObject:
  m_ObjectHideFlags: 0
  m_CorrespondingSourceObject: {fileID: 0}
  m_PrefabInstance: {fileID: 0}
  m_PrefabAsset: {fileID: 0}
  serializedVersion: 6
  m_Component:
  - component: {fileID: 1754447012}
  - component: {fileID: 1754447010}
  - component: {fileID: 1754447011}
  m_Layer: 0
  m_Name: Main Camera
  m_TagString: MainCamera
  m_Icon: {fileID: 0}
  m_NavMeshLayer: 0
  m_StaticEditorFlags: 0
  m_IsActive: 1
--- !u!20 &1754447010
Camera:
  m_ObjectHideFlags: 0
  m_CorrespondingSourceObject: {fileID: 0}
  m_PrefabInstance: {fileID: 0}
  m_PrefabAsset: {fileID: 0}
  m_GameObject: {fileID: 1754447009}
  m_Enabled: 1
  serializedVersion: 2
  m_ClearFlags: 1
  m_BackGroundColor: {r: 0.19215687, g: 0.3019608, b: 0.4745098, a: 0}
  m_projectionMatrixMode: 1
  m_GateFitMode: 2
  m_FOVAxisMode: 0
  m_SensorSize: {x: 36, y: 24}
  m_LensShift: {x: 0, y: 0}
  m_FocalLength: 50
  m_NormalizedViewPortRect:
    serializedVersion: 2
    x: 0
    y: 0
    width: 1
    height: 1
  near clip plane: 0.3
  far clip plane: 1000
  field of view: 60
  orthographic: 0
  orthographic size: 5
  m_Depth: -1
  m_CullingMask:
    serializedVersion: 2
    m_Bits: 4294967295
  m_RenderingPath: -1
  m_TargetTexture: {fileID: 0}
  m_TargetDisplay: 0
  m_TargetEye: 3
  m_HDR: 1
  m_AllowMSAA: 1
  m_AllowDynamicResolution: 0
  m_ForceIntoRT: 0
  m_OcclusionCulling: 1
  m_StereoConvergence: 10
  m_StereoSeparation: 0.022
--- !u!81 &1754447011
AudioListener:
  m_ObjectHideFlags: 0
  m_CorrespondingSourceObject: {fileID: 0}
  m_PrefabInstance: {fileID: 0}
  m_PrefabAsset: {fileID: 0}
  m_GameObject: {fileID: 1754447009}
  m_Enabled: 1
--- !u!4 &1754447012
Transform:
  m_ObjectHideFlags: 0
  m_CorrespondingSourceObject: {fileID: 0}
  m_PrefabInstance: {fileID: 0}
  m_PrefabAsset: {fileID: 0}
  m_GameObject: {fileID: 1754447009}
  m_LocalRotation: {x: 0, y: 0, z: 0, w: 1}
  m_LocalPosition: {x: 0, y: 1, z: -10}
  m_LocalScale: {x: 1, y: 1, z: 1}
  m_Children: []
  m_Father: {fileID: 0}
  m_RootOrder: 0
  m_LocalEulerAnglesHint: {x: 0, y: 0, z: 0}
--- !u!224 &1779578190 stripped
RectTransform:
  m_CorrespondingSourceObject: {fileID: 1406149562504310564, guid: acbefe57e36bd7644a9466a0a74cc71c, type: 3}
  m_PrefabInstance: {fileID: 1406149563142756970}
  m_PrefabAsset: {fileID: 0}
--- !u!224 &1862911549 stripped
RectTransform:
  m_CorrespondingSourceObject: {fileID: 1270998069477924016, guid: a1f1a08c2ffddcb40b6a7e1b5a38396e, type: 3}
  m_PrefabInstance: {fileID: 1270998071038810765}
  m_PrefabAsset: {fileID: 0}
--- !u!224 &2028685964 stripped
RectTransform:
  m_CorrespondingSourceObject: {fileID: 3238641210578602027, guid: 170763bcdbe521f4fb8fc51750fbac37, type: 3}
  m_PrefabInstance: {fileID: 3238641211788083879}
  m_PrefabAsset: {fileID: 0}
--- !u!1001 &776226744146205075
PrefabInstance:
  m_ObjectHideFlags: 0
  serializedVersion: 2
  m_Modification:
    m_TransformParent: {fileID: 1553188541}
    m_Modifications:
    - target: {fileID: 776226742669930724, guid: 67c96c005872eb640935759dcb8f10fa, type: 3}
      propertyPath: m_LocalPosition.x
      value: 0
      objectReference: {fileID: 0}
    - target: {fileID: 776226742669930724, guid: 67c96c005872eb640935759dcb8f10fa, type: 3}
      propertyPath: m_LocalPosition.y
      value: 0
      objectReference: {fileID: 0}
    - target: {fileID: 776226742669930724, guid: 67c96c005872eb640935759dcb8f10fa, type: 3}
      propertyPath: m_LocalPosition.z
      value: 0
      objectReference: {fileID: 0}
    - target: {fileID: 776226742669930724, guid: 67c96c005872eb640935759dcb8f10fa, type: 3}
      propertyPath: m_LocalRotation.x
      value: 0
      objectReference: {fileID: 0}
    - target: {fileID: 776226742669930724, guid: 67c96c005872eb640935759dcb8f10fa, type: 3}
      propertyPath: m_LocalRotation.y
      value: 0
      objectReference: {fileID: 0}
    - target: {fileID: 776226742669930724, guid: 67c96c005872eb640935759dcb8f10fa, type: 3}
      propertyPath: m_LocalRotation.z
      value: 0
      objectReference: {fileID: 0}
    - target: {fileID: 776226742669930724, guid: 67c96c005872eb640935759dcb8f10fa, type: 3}
      propertyPath: m_LocalRotation.w
      value: 1
      objectReference: {fileID: 0}
    - target: {fileID: 776226742669930724, guid: 67c96c005872eb640935759dcb8f10fa, type: 3}
      propertyPath: m_RootOrder
      value: 5
      objectReference: {fileID: 0}
    - target: {fileID: 776226742669930724, guid: 67c96c005872eb640935759dcb8f10fa, type: 3}
      propertyPath: m_LocalEulerAnglesHint.x
      value: 0
      objectReference: {fileID: 0}
    - target: {fileID: 776226742669930724, guid: 67c96c005872eb640935759dcb8f10fa, type: 3}
      propertyPath: m_LocalEulerAnglesHint.y
      value: 0
      objectReference: {fileID: 0}
    - target: {fileID: 776226742669930724, guid: 67c96c005872eb640935759dcb8f10fa, type: 3}
      propertyPath: m_LocalEulerAnglesHint.z
      value: 0
      objectReference: {fileID: 0}
    - target: {fileID: 776226742669930724, guid: 67c96c005872eb640935759dcb8f10fa, type: 3}
      propertyPath: m_AnchoredPosition.x
      value: 0
      objectReference: {fileID: 0}
    - target: {fileID: 776226742669930724, guid: 67c96c005872eb640935759dcb8f10fa, type: 3}
      propertyPath: m_AnchoredPosition.y
      value: 0
      objectReference: {fileID: 0}
    - target: {fileID: 776226742669930724, guid: 67c96c005872eb640935759dcb8f10fa, type: 3}
      propertyPath: m_SizeDelta.x
      value: 100
      objectReference: {fileID: 0}
    - target: {fileID: 776226742669930724, guid: 67c96c005872eb640935759dcb8f10fa, type: 3}
      propertyPath: m_SizeDelta.y
      value: 100
      objectReference: {fileID: 0}
    - target: {fileID: 776226742669930724, guid: 67c96c005872eb640935759dcb8f10fa, type: 3}
      propertyPath: m_AnchorMin.x
      value: 0.5
      objectReference: {fileID: 0}
    - target: {fileID: 776226742669930724, guid: 67c96c005872eb640935759dcb8f10fa, type: 3}
      propertyPath: m_AnchorMin.y
      value: 0.5
      objectReference: {fileID: 0}
    - target: {fileID: 776226742669930724, guid: 67c96c005872eb640935759dcb8f10fa, type: 3}
      propertyPath: m_AnchorMax.x
      value: 0.5
      objectReference: {fileID: 0}
    - target: {fileID: 776226742669930724, guid: 67c96c005872eb640935759dcb8f10fa, type: 3}
      propertyPath: m_AnchorMax.y
      value: 0.5
      objectReference: {fileID: 0}
    - target: {fileID: 776226742669930724, guid: 67c96c005872eb640935759dcb8f10fa, type: 3}
      propertyPath: m_Pivot.x
      value: 0.5
      objectReference: {fileID: 0}
    - target: {fileID: 776226742669930724, guid: 67c96c005872eb640935759dcb8f10fa, type: 3}
      propertyPath: m_Pivot.y
      value: 0.5
      objectReference: {fileID: 0}
    - target: {fileID: 776226742669930725, guid: 67c96c005872eb640935759dcb8f10fa, type: 3}
      propertyPath: m_Name
      value: fire_cracker
      objectReference: {fileID: 0}
    - target: {fileID: 776226742669930725, guid: 67c96c005872eb640935759dcb8f10fa, type: 3}
      propertyPath: m_IsActive
      value: 0
      objectReference: {fileID: 0}
    m_RemovedComponents: []
  m_SourcePrefab: {fileID: 100100000, guid: 67c96c005872eb640935759dcb8f10fa, type: 3}
--- !u!1001 &1259868443877465861
PrefabInstance:
  m_ObjectHideFlags: 0
  serializedVersion: 2
  m_Modification:
    m_TransformParent: {fileID: 1553188541}
    m_Modifications:
    - target: {fileID: 1259868443245304778, guid: 3f8687fb3dacfc640850f042f1d58b9f, type: 3}
      propertyPath: m_LocalPosition.x
      value: 0
      objectReference: {fileID: 0}
    - target: {fileID: 1259868443245304778, guid: 3f8687fb3dacfc640850f042f1d58b9f, type: 3}
      propertyPath: m_LocalPosition.y
      value: 0
      objectReference: {fileID: 0}
    - target: {fileID: 1259868443245304778, guid: 3f8687fb3dacfc640850f042f1d58b9f, type: 3}
      propertyPath: m_LocalPosition.z
      value: 0
      objectReference: {fileID: 0}
    - target: {fileID: 1259868443245304778, guid: 3f8687fb3dacfc640850f042f1d58b9f, type: 3}
      propertyPath: m_LocalRotation.x
      value: 0
      objectReference: {fileID: 0}
    - target: {fileID: 1259868443245304778, guid: 3f8687fb3dacfc640850f042f1d58b9f, type: 3}
      propertyPath: m_LocalRotation.y
      value: 0
      objectReference: {fileID: 0}
    - target: {fileID: 1259868443245304778, guid: 3f8687fb3dacfc640850f042f1d58b9f, type: 3}
      propertyPath: m_LocalRotation.z
      value: 0
      objectReference: {fileID: 0}
    - target: {fileID: 1259868443245304778, guid: 3f8687fb3dacfc640850f042f1d58b9f, type: 3}
      propertyPath: m_LocalRotation.w
      value: 1
      objectReference: {fileID: 0}
    - target: {fileID: 1259868443245304778, guid: 3f8687fb3dacfc640850f042f1d58b9f, type: 3}
      propertyPath: m_RootOrder
      value: 7
      objectReference: {fileID: 0}
    - target: {fileID: 1259868443245304778, guid: 3f8687fb3dacfc640850f042f1d58b9f, type: 3}
      propertyPath: m_LocalEulerAnglesHint.x
      value: 0
      objectReference: {fileID: 0}
    - target: {fileID: 1259868443245304778, guid: 3f8687fb3dacfc640850f042f1d58b9f, type: 3}
      propertyPath: m_LocalEulerAnglesHint.y
      value: 0
      objectReference: {fileID: 0}
    - target: {fileID: 1259868443245304778, guid: 3f8687fb3dacfc640850f042f1d58b9f, type: 3}
      propertyPath: m_LocalEulerAnglesHint.z
      value: 0
      objectReference: {fileID: 0}
    - target: {fileID: 1259868443245304778, guid: 3f8687fb3dacfc640850f042f1d58b9f, type: 3}
      propertyPath: m_AnchoredPosition.x
      value: 0
      objectReference: {fileID: 0}
    - target: {fileID: 1259868443245304778, guid: 3f8687fb3dacfc640850f042f1d58b9f, type: 3}
      propertyPath: m_AnchoredPosition.y
      value: 0
      objectReference: {fileID: 0}
    - target: {fileID: 1259868443245304778, guid: 3f8687fb3dacfc640850f042f1d58b9f, type: 3}
      propertyPath: m_SizeDelta.x
      value: 100
      objectReference: {fileID: 0}
    - target: {fileID: 1259868443245304778, guid: 3f8687fb3dacfc640850f042f1d58b9f, type: 3}
      propertyPath: m_SizeDelta.y
      value: 100
      objectReference: {fileID: 0}
    - target: {fileID: 1259868443245304778, guid: 3f8687fb3dacfc640850f042f1d58b9f, type: 3}
      propertyPath: m_AnchorMin.x
      value: 0.5
      objectReference: {fileID: 0}
    - target: {fileID: 1259868443245304778, guid: 3f8687fb3dacfc640850f042f1d58b9f, type: 3}
      propertyPath: m_AnchorMin.y
      value: 0.5
      objectReference: {fileID: 0}
    - target: {fileID: 1259868443245304778, guid: 3f8687fb3dacfc640850f042f1d58b9f, type: 3}
      propertyPath: m_AnchorMax.x
      value: 0.5
      objectReference: {fileID: 0}
    - target: {fileID: 1259868443245304778, guid: 3f8687fb3dacfc640850f042f1d58b9f, type: 3}
      propertyPath: m_AnchorMax.y
      value: 0.5
      objectReference: {fileID: 0}
    - target: {fileID: 1259868443245304778, guid: 3f8687fb3dacfc640850f042f1d58b9f, type: 3}
      propertyPath: m_Pivot.x
      value: 0.5
      objectReference: {fileID: 0}
    - target: {fileID: 1259868443245304778, guid: 3f8687fb3dacfc640850f042f1d58b9f, type: 3}
      propertyPath: m_Pivot.y
      value: 0.5
      objectReference: {fileID: 0}
    - target: {fileID: 1259868443245304779, guid: 3f8687fb3dacfc640850f042f1d58b9f, type: 3}
      propertyPath: m_Name
      value: drum
      objectReference: {fileID: 0}
    - target: {fileID: 1259868443245304779, guid: 3f8687fb3dacfc640850f042f1d58b9f, type: 3}
      propertyPath: m_IsActive
      value: 0
      objectReference: {fileID: 0}
    m_RemovedComponents: []
  m_SourcePrefab: {fileID: 100100000, guid: 3f8687fb3dacfc640850f042f1d58b9f, type: 3}
--- !u!1001 &1270998071038810765
PrefabInstance:
  m_ObjectHideFlags: 0
  serializedVersion: 2
  m_Modification:
    m_TransformParent: {fileID: 1553188541}
    m_Modifications:
    - target: {fileID: 1270998069477924016, guid: a1f1a08c2ffddcb40b6a7e1b5a38396e, type: 3}
      propertyPath: m_LocalPosition.x
      value: 0
      objectReference: {fileID: 0}
    - target: {fileID: 1270998069477924016, guid: a1f1a08c2ffddcb40b6a7e1b5a38396e, type: 3}
      propertyPath: m_LocalPosition.y
      value: 0
      objectReference: {fileID: 0}
    - target: {fileID: 1270998069477924016, guid: a1f1a08c2ffddcb40b6a7e1b5a38396e, type: 3}
      propertyPath: m_LocalPosition.z
      value: 0
      objectReference: {fileID: 0}
    - target: {fileID: 1270998069477924016, guid: a1f1a08c2ffddcb40b6a7e1b5a38396e, type: 3}
      propertyPath: m_LocalRotation.x
      value: 0
      objectReference: {fileID: 0}
    - target: {fileID: 1270998069477924016, guid: a1f1a08c2ffddcb40b6a7e1b5a38396e, type: 3}
      propertyPath: m_LocalRotation.y
      value: 0
      objectReference: {fileID: 0}
    - target: {fileID: 1270998069477924016, guid: a1f1a08c2ffddcb40b6a7e1b5a38396e, type: 3}
      propertyPath: m_LocalRotation.z
      value: 0
      objectReference: {fileID: 0}
    - target: {fileID: 1270998069477924016, guid: a1f1a08c2ffddcb40b6a7e1b5a38396e, type: 3}
      propertyPath: m_LocalRotation.w
      value: 1
      objectReference: {fileID: 0}
    - target: {fileID: 1270998069477924016, guid: a1f1a08c2ffddcb40b6a7e1b5a38396e, type: 3}
      propertyPath: m_RootOrder
      value: 1
      objectReference: {fileID: 0}
    - target: {fileID: 1270998069477924016, guid: a1f1a08c2ffddcb40b6a7e1b5a38396e, type: 3}
      propertyPath: m_LocalEulerAnglesHint.x
      value: 0
      objectReference: {fileID: 0}
    - target: {fileID: 1270998069477924016, guid: a1f1a08c2ffddcb40b6a7e1b5a38396e, type: 3}
      propertyPath: m_LocalEulerAnglesHint.y
      value: 0
      objectReference: {fileID: 0}
    - target: {fileID: 1270998069477924016, guid: a1f1a08c2ffddcb40b6a7e1b5a38396e, type: 3}
      propertyPath: m_LocalEulerAnglesHint.z
      value: 0
      objectReference: {fileID: 0}
    - target: {fileID: 1270998069477924016, guid: a1f1a08c2ffddcb40b6a7e1b5a38396e, type: 3}
      propertyPath: m_AnchoredPosition.x
      value: 0
      objectReference: {fileID: 0}
    - target: {fileID: 1270998069477924016, guid: a1f1a08c2ffddcb40b6a7e1b5a38396e, type: 3}
      propertyPath: m_AnchoredPosition.y
      value: 0
      objectReference: {fileID: 0}
    - target: {fileID: 1270998069477924016, guid: a1f1a08c2ffddcb40b6a7e1b5a38396e, type: 3}
      propertyPath: m_SizeDelta.x
      value: 100
      objectReference: {fileID: 0}
    - target: {fileID: 1270998069477924016, guid: a1f1a08c2ffddcb40b6a7e1b5a38396e, type: 3}
      propertyPath: m_SizeDelta.y
      value: 100
      objectReference: {fileID: 0}
    - target: {fileID: 1270998069477924016, guid: a1f1a08c2ffddcb40b6a7e1b5a38396e, type: 3}
      propertyPath: m_AnchorMin.x
      value: 0.5
      objectReference: {fileID: 0}
    - target: {fileID: 1270998069477924016, guid: a1f1a08c2ffddcb40b6a7e1b5a38396e, type: 3}
      propertyPath: m_AnchorMin.y
      value: 0.5
      objectReference: {fileID: 0}
    - target: {fileID: 1270998069477924016, guid: a1f1a08c2ffddcb40b6a7e1b5a38396e, type: 3}
      propertyPath: m_AnchorMax.x
      value: 0.5
      objectReference: {fileID: 0}
    - target: {fileID: 1270998069477924016, guid: a1f1a08c2ffddcb40b6a7e1b5a38396e, type: 3}
      propertyPath: m_AnchorMax.y
      value: 0.5
      objectReference: {fileID: 0}
    - target: {fileID: 1270998069477924016, guid: a1f1a08c2ffddcb40b6a7e1b5a38396e, type: 3}
      propertyPath: m_Pivot.x
      value: 0.5
      objectReference: {fileID: 0}
    - target: {fileID: 1270998069477924016, guid: a1f1a08c2ffddcb40b6a7e1b5a38396e, type: 3}
      propertyPath: m_Pivot.y
      value: 0.5
      objectReference: {fileID: 0}
    - target: {fileID: 1270998069477924017, guid: a1f1a08c2ffddcb40b6a7e1b5a38396e, type: 3}
      propertyPath: m_Name
      value: wild_silver
      objectReference: {fileID: 0}
    - target: {fileID: 1270998069477924017, guid: a1f1a08c2ffddcb40b6a7e1b5a38396e, type: 3}
      propertyPath: m_IsActive
      value: 0
      objectReference: {fileID: 0}
    m_RemovedComponents: []
  m_SourcePrefab: {fileID: 100100000, guid: a1f1a08c2ffddcb40b6a7e1b5a38396e, type: 3}
--- !u!1001 &1406149563142756970
PrefabInstance:
  m_ObjectHideFlags: 0
  serializedVersion: 2
  m_Modification:
    m_TransformParent: {fileID: 1553188541}
    m_Modifications:
    - target: {fileID: 1406149562504310564, guid: acbefe57e36bd7644a9466a0a74cc71c, type: 3}
      propertyPath: m_LocalPosition.x
      value: 0
      objectReference: {fileID: 0}
    - target: {fileID: 1406149562504310564, guid: acbefe57e36bd7644a9466a0a74cc71c, type: 3}
      propertyPath: m_LocalPosition.y
      value: 0
      objectReference: {fileID: 0}
    - target: {fileID: 1406149562504310564, guid: acbefe57e36bd7644a9466a0a74cc71c, type: 3}
      propertyPath: m_LocalPosition.z
      value: 0
      objectReference: {fileID: 0}
    - target: {fileID: 1406149562504310564, guid: acbefe57e36bd7644a9466a0a74cc71c, type: 3}
      propertyPath: m_LocalRotation.x
      value: 0
      objectReference: {fileID: 0}
    - target: {fileID: 1406149562504310564, guid: acbefe57e36bd7644a9466a0a74cc71c, type: 3}
      propertyPath: m_LocalRotation.y
      value: 0
      objectReference: {fileID: 0}
    - target: {fileID: 1406149562504310564, guid: acbefe57e36bd7644a9466a0a74cc71c, type: 3}
      propertyPath: m_LocalRotation.z
      value: 0
      objectReference: {fileID: 0}
    - target: {fileID: 1406149562504310564, guid: acbefe57e36bd7644a9466a0a74cc71c, type: 3}
      propertyPath: m_LocalRotation.w
      value: 1
      objectReference: {fileID: 0}
    - target: {fileID: 1406149562504310564, guid: acbefe57e36bd7644a9466a0a74cc71c, type: 3}
      propertyPath: m_RootOrder
      value: 2
      objectReference: {fileID: 0}
    - target: {fileID: 1406149562504310564, guid: acbefe57e36bd7644a9466a0a74cc71c, type: 3}
      propertyPath: m_LocalEulerAnglesHint.x
      value: 0
      objectReference: {fileID: 0}
    - target: {fileID: 1406149562504310564, guid: acbefe57e36bd7644a9466a0a74cc71c, type: 3}
      propertyPath: m_LocalEulerAnglesHint.y
      value: 0
      objectReference: {fileID: 0}
    - target: {fileID: 1406149562504310564, guid: acbefe57e36bd7644a9466a0a74cc71c, type: 3}
      propertyPath: m_LocalEulerAnglesHint.z
      value: 0
      objectReference: {fileID: 0}
    - target: {fileID: 1406149562504310564, guid: acbefe57e36bd7644a9466a0a74cc71c, type: 3}
      propertyPath: m_AnchoredPosition.x
      value: 0
      objectReference: {fileID: 0}
    - target: {fileID: 1406149562504310564, guid: acbefe57e36bd7644a9466a0a74cc71c, type: 3}
      propertyPath: m_AnchoredPosition.y
      value: 0
      objectReference: {fileID: 0}
    - target: {fileID: 1406149562504310564, guid: acbefe57e36bd7644a9466a0a74cc71c, type: 3}
      propertyPath: m_SizeDelta.x
      value: 100
      objectReference: {fileID: 0}
    - target: {fileID: 1406149562504310564, guid: acbefe57e36bd7644a9466a0a74cc71c, type: 3}
      propertyPath: m_SizeDelta.y
      value: 100
      objectReference: {fileID: 0}
    - target: {fileID: 1406149562504310564, guid: acbefe57e36bd7644a9466a0a74cc71c, type: 3}
      propertyPath: m_AnchorMin.x
      value: 0.5
      objectReference: {fileID: 0}
    - target: {fileID: 1406149562504310564, guid: acbefe57e36bd7644a9466a0a74cc71c, type: 3}
      propertyPath: m_AnchorMin.y
      value: 0.5
      objectReference: {fileID: 0}
    - target: {fileID: 1406149562504310564, guid: acbefe57e36bd7644a9466a0a74cc71c, type: 3}
      propertyPath: m_AnchorMax.x
      value: 0.5
      objectReference: {fileID: 0}
    - target: {fileID: 1406149562504310564, guid: acbefe57e36bd7644a9466a0a74cc71c, type: 3}
      propertyPath: m_AnchorMax.y
      value: 0.5
      objectReference: {fileID: 0}
    - target: {fileID: 1406149562504310564, guid: acbefe57e36bd7644a9466a0a74cc71c, type: 3}
      propertyPath: m_Pivot.x
      value: 0.5
      objectReference: {fileID: 0}
    - target: {fileID: 1406149562504310564, guid: acbefe57e36bd7644a9466a0a74cc71c, type: 3}
      propertyPath: m_Pivot.y
      value: 0.5
      objectReference: {fileID: 0}
    - target: {fileID: 1406149562504310567, guid: acbefe57e36bd7644a9466a0a74cc71c, type: 3}
      propertyPath: m_Name
      value: wild_gold_combo
      objectReference: {fileID: 0}
    - target: {fileID: 1406149562504310567, guid: acbefe57e36bd7644a9466a0a74cc71c, type: 3}
      propertyPath: m_IsActive
      value: 0
      objectReference: {fileID: 0}
    m_RemovedComponents: []
  m_SourcePrefab: {fileID: 100100000, guid: acbefe57e36bd7644a9466a0a74cc71c, type: 3}
--- !u!1001 &1565208348695423392
PrefabInstance:
  m_ObjectHideFlags: 0
  serializedVersion: 2
  m_Modification:
    m_TransformParent: {fileID: 1553188541}
    m_Modifications:
    - target: {fileID: 1565208349620613628, guid: 5bf94f342fa4f324bb6af4cb2169e22c, type: 3}
      propertyPath: m_Name
      value: wild_silver_combo
      objectReference: {fileID: 0}
    - target: {fileID: 1565208349620613628, guid: 5bf94f342fa4f324bb6af4cb2169e22c, type: 3}
      propertyPath: m_IsActive
      value: 0
      objectReference: {fileID: 0}
    - target: {fileID: 1565208349620613629, guid: 5bf94f342fa4f324bb6af4cb2169e22c, type: 3}
      propertyPath: m_LocalPosition.x
      value: 0
      objectReference: {fileID: 0}
    - target: {fileID: 1565208349620613629, guid: 5bf94f342fa4f324bb6af4cb2169e22c, type: 3}
      propertyPath: m_LocalPosition.y
      value: 0
      objectReference: {fileID: 0}
    - target: {fileID: 1565208349620613629, guid: 5bf94f342fa4f324bb6af4cb2169e22c, type: 3}
      propertyPath: m_LocalPosition.z
      value: 0
      objectReference: {fileID: 0}
    - target: {fileID: 1565208349620613629, guid: 5bf94f342fa4f324bb6af4cb2169e22c, type: 3}
      propertyPath: m_LocalRotation.x
      value: 0
      objectReference: {fileID: 0}
    - target: {fileID: 1565208349620613629, guid: 5bf94f342fa4f324bb6af4cb2169e22c, type: 3}
      propertyPath: m_LocalRotation.y
      value: 0
      objectReference: {fileID: 0}
    - target: {fileID: 1565208349620613629, guid: 5bf94f342fa4f324bb6af4cb2169e22c, type: 3}
      propertyPath: m_LocalRotation.z
      value: 0
      objectReference: {fileID: 0}
    - target: {fileID: 1565208349620613629, guid: 5bf94f342fa4f324bb6af4cb2169e22c, type: 3}
      propertyPath: m_LocalRotation.w
      value: 1
      objectReference: {fileID: 0}
    - target: {fileID: 1565208349620613629, guid: 5bf94f342fa4f324bb6af4cb2169e22c, type: 3}
      propertyPath: m_RootOrder
      value: 3
      objectReference: {fileID: 0}
    - target: {fileID: 1565208349620613629, guid: 5bf94f342fa4f324bb6af4cb2169e22c, type: 3}
      propertyPath: m_LocalEulerAnglesHint.x
      value: 0
      objectReference: {fileID: 0}
    - target: {fileID: 1565208349620613629, guid: 5bf94f342fa4f324bb6af4cb2169e22c, type: 3}
      propertyPath: m_LocalEulerAnglesHint.y
      value: 0
      objectReference: {fileID: 0}
    - target: {fileID: 1565208349620613629, guid: 5bf94f342fa4f324bb6af4cb2169e22c, type: 3}
      propertyPath: m_LocalEulerAnglesHint.z
      value: 0
      objectReference: {fileID: 0}
    - target: {fileID: 1565208349620613629, guid: 5bf94f342fa4f324bb6af4cb2169e22c, type: 3}
      propertyPath: m_AnchoredPosition.x
      value: 0
      objectReference: {fileID: 0}
    - target: {fileID: 1565208349620613629, guid: 5bf94f342fa4f324bb6af4cb2169e22c, type: 3}
      propertyPath: m_AnchoredPosition.y
      value: 0
      objectReference: {fileID: 0}
    - target: {fileID: 1565208349620613629, guid: 5bf94f342fa4f324bb6af4cb2169e22c, type: 3}
      propertyPath: m_SizeDelta.x
      value: 100
      objectReference: {fileID: 0}
    - target: {fileID: 1565208349620613629, guid: 5bf94f342fa4f324bb6af4cb2169e22c, type: 3}
      propertyPath: m_SizeDelta.y
      value: 100
      objectReference: {fileID: 0}
    - target: {fileID: 1565208349620613629, guid: 5bf94f342fa4f324bb6af4cb2169e22c, type: 3}
      propertyPath: m_AnchorMin.x
      value: 0.5
      objectReference: {fileID: 0}
    - target: {fileID: 1565208349620613629, guid: 5bf94f342fa4f324bb6af4cb2169e22c, type: 3}
      propertyPath: m_AnchorMin.y
      value: 0.5
      objectReference: {fileID: 0}
    - target: {fileID: 1565208349620613629, guid: 5bf94f342fa4f324bb6af4cb2169e22c, type: 3}
      propertyPath: m_AnchorMax.x
      value: 0.5
      objectReference: {fileID: 0}
    - target: {fileID: 1565208349620613629, guid: 5bf94f342fa4f324bb6af4cb2169e22c, type: 3}
      propertyPath: m_AnchorMax.y
      value: 0.5
      objectReference: {fileID: 0}
    - target: {fileID: 1565208349620613629, guid: 5bf94f342fa4f324bb6af4cb2169e22c, type: 3}
      propertyPath: m_Pivot.x
      value: 0.5
      objectReference: {fileID: 0}
    - target: {fileID: 1565208349620613629, guid: 5bf94f342fa4f324bb6af4cb2169e22c, type: 3}
      propertyPath: m_Pivot.y
      value: 0.5
      objectReference: {fileID: 0}
    m_RemovedComponents: []
  m_SourcePrefab: {fileID: 100100000, guid: 5bf94f342fa4f324bb6af4cb2169e22c, type: 3}
--- !u!1001 &3238641211788083879
PrefabInstance:
  m_ObjectHideFlags: 0
  serializedVersion: 2
  m_Modification:
    m_TransformParent: {fileID: 1553188541}
    m_Modifications:
    - target: {fileID: 3238641210578602027, guid: 170763bcdbe521f4fb8fc51750fbac37, type: 3}
      propertyPath: m_LocalPosition.x
      value: 0
      objectReference: {fileID: 0}
    - target: {fileID: 3238641210578602027, guid: 170763bcdbe521f4fb8fc51750fbac37, type: 3}
      propertyPath: m_LocalPosition.y
      value: 0
      objectReference: {fileID: 0}
    - target: {fileID: 3238641210578602027, guid: 170763bcdbe521f4fb8fc51750fbac37, type: 3}
      propertyPath: m_LocalPosition.z
      value: 0
      objectReference: {fileID: 0}
    - target: {fileID: 3238641210578602027, guid: 170763bcdbe521f4fb8fc51750fbac37, type: 3}
      propertyPath: m_LocalRotation.x
      value: 0
      objectReference: {fileID: 0}
    - target: {fileID: 3238641210578602027, guid: 170763bcdbe521f4fb8fc51750fbac37, type: 3}
      propertyPath: m_LocalRotation.y
      value: 0
      objectReference: {fileID: 0}
    - target: {fileID: 3238641210578602027, guid: 170763bcdbe521f4fb8fc51750fbac37, type: 3}
      propertyPath: m_LocalRotation.z
      value: 0
      objectReference: {fileID: 0}
    - target: {fileID: 3238641210578602027, guid: 170763bcdbe521f4fb8fc51750fbac37, type: 3}
      propertyPath: m_LocalRotation.w
      value: 1
      objectReference: {fileID: 0}
    - target: {fileID: 3238641210578602027, guid: 170763bcdbe521f4fb8fc51750fbac37, type: 3}
      propertyPath: m_RootOrder
      value: 8
      objectReference: {fileID: 0}
    - target: {fileID: 3238641210578602027, guid: 170763bcdbe521f4fb8fc51750fbac37, type: 3}
      propertyPath: m_LocalEulerAnglesHint.x
      value: 0
      objectReference: {fileID: 0}
    - target: {fileID: 3238641210578602027, guid: 170763bcdbe521f4fb8fc51750fbac37, type: 3}
      propertyPath: m_LocalEulerAnglesHint.y
      value: 0
      objectReference: {fileID: 0}
    - target: {fileID: 3238641210578602027, guid: 170763bcdbe521f4fb8fc51750fbac37, type: 3}
      propertyPath: m_LocalEulerAnglesHint.z
      value: 0
      objectReference: {fileID: 0}
    - target: {fileID: 3238641210578602027, guid: 170763bcdbe521f4fb8fc51750fbac37, type: 3}
      propertyPath: m_AnchoredPosition.x
      value: 0
      objectReference: {fileID: 0}
    - target: {fileID: 3238641210578602027, guid: 170763bcdbe521f4fb8fc51750fbac37, type: 3}
      propertyPath: m_AnchoredPosition.y
      value: 0
      objectReference: {fileID: 0}
    - target: {fileID: 3238641210578602027, guid: 170763bcdbe521f4fb8fc51750fbac37, type: 3}
      propertyPath: m_SizeDelta.x
      value: 100
      objectReference: {fileID: 0}
    - target: {fileID: 3238641210578602027, guid: 170763bcdbe521f4fb8fc51750fbac37, type: 3}
      propertyPath: m_SizeDelta.y
      value: 100
      objectReference: {fileID: 0}
    - target: {fileID: 3238641210578602027, guid: 170763bcdbe521f4fb8fc51750fbac37, type: 3}
      propertyPath: m_AnchorMin.x
      value: 0.5
      objectReference: {fileID: 0}
    - target: {fileID: 3238641210578602027, guid: 170763bcdbe521f4fb8fc51750fbac37, type: 3}
      propertyPath: m_AnchorMin.y
      value: 0.5
      objectReference: {fileID: 0}
    - target: {fileID: 3238641210578602027, guid: 170763bcdbe521f4fb8fc51750fbac37, type: 3}
      propertyPath: m_AnchorMax.x
      value: 0.5
      objectReference: {fileID: 0}
    - target: {fileID: 3238641210578602027, guid: 170763bcdbe521f4fb8fc51750fbac37, type: 3}
      propertyPath: m_AnchorMax.y
      value: 0.5
      objectReference: {fileID: 0}
    - target: {fileID: 3238641210578602027, guid: 170763bcdbe521f4fb8fc51750fbac37, type: 3}
      propertyPath: m_Pivot.x
      value: 0.5
      objectReference: {fileID: 0}
    - target: {fileID: 3238641210578602027, guid: 170763bcdbe521f4fb8fc51750fbac37, type: 3}
      propertyPath: m_Pivot.y
      value: 0.5
      objectReference: {fileID: 0}
    - target: {fileID: 3238641210578602028, guid: 170763bcdbe521f4fb8fc51750fbac37, type: 3}
      propertyPath: m_Name
      value: GameObject
      objectReference: {fileID: 0}
    m_RemovedComponents: []
  m_SourcePrefab: {fileID: 100100000, guid: 170763bcdbe521f4fb8fc51750fbac37, type: 3}
--- !u!1001 &3729094426184701448
PrefabInstance:
  m_ObjectHideFlags: 0
  serializedVersion: 2
  m_Modification:
    m_TransformParent: {fileID: 1553188541}
    m_Modifications:
    - target: {fileID: 3729094424579156448, guid: fcddce2b1e15a0c45a5e66434e94dc6e, type: 3}
      propertyPath: m_Name
      value: wild_gold
      objectReference: {fileID: 0}
    - target: {fileID: 3729094424579156448, guid: fcddce2b1e15a0c45a5e66434e94dc6e, type: 3}
      propertyPath: m_IsActive
      value: 0
      objectReference: {fileID: 0}
    - target: {fileID: 3729094424579156449, guid: fcddce2b1e15a0c45a5e66434e94dc6e, type: 3}
      propertyPath: m_LocalPosition.x
      value: 0
      objectReference: {fileID: 0}
    - target: {fileID: 3729094424579156449, guid: fcddce2b1e15a0c45a5e66434e94dc6e, type: 3}
      propertyPath: m_LocalPosition.y
      value: 0
      objectReference: {fileID: 0}
    - target: {fileID: 3729094424579156449, guid: fcddce2b1e15a0c45a5e66434e94dc6e, type: 3}
      propertyPath: m_LocalPosition.z
      value: 0
      objectReference: {fileID: 0}
    - target: {fileID: 3729094424579156449, guid: fcddce2b1e15a0c45a5e66434e94dc6e, type: 3}
      propertyPath: m_LocalRotation.x
      value: -0
      objectReference: {fileID: 0}
    - target: {fileID: 3729094424579156449, guid: fcddce2b1e15a0c45a5e66434e94dc6e, type: 3}
      propertyPath: m_LocalRotation.y
      value: -0
      objectReference: {fileID: 0}
    - target: {fileID: 3729094424579156449, guid: fcddce2b1e15a0c45a5e66434e94dc6e, type: 3}
      propertyPath: m_LocalRotation.z
      value: -0
      objectReference: {fileID: 0}
    - target: {fileID: 3729094424579156449, guid: fcddce2b1e15a0c45a5e66434e94dc6e, type: 3}
      propertyPath: m_LocalRotation.w
      value: 1
      objectReference: {fileID: 0}
    - target: {fileID: 3729094424579156449, guid: fcddce2b1e15a0c45a5e66434e94dc6e, type: 3}
      propertyPath: m_RootOrder
      value: 0
      objectReference: {fileID: 0}
    - target: {fileID: 3729094424579156449, guid: fcddce2b1e15a0c45a5e66434e94dc6e, type: 3}
      propertyPath: m_LocalEulerAnglesHint.x
      value: 0
      objectReference: {fileID: 0}
    - target: {fileID: 3729094424579156449, guid: fcddce2b1e15a0c45a5e66434e94dc6e, type: 3}
      propertyPath: m_LocalEulerAnglesHint.y
      value: 0
      objectReference: {fileID: 0}
    - target: {fileID: 3729094424579156449, guid: fcddce2b1e15a0c45a5e66434e94dc6e, type: 3}
      propertyPath: m_LocalEulerAnglesHint.z
      value: 0
      objectReference: {fileID: 0}
    - target: {fileID: 3729094424579156449, guid: fcddce2b1e15a0c45a5e66434e94dc6e, type: 3}
      propertyPath: m_AnchoredPosition.x
      value: 0
      objectReference: {fileID: 0}
    - target: {fileID: 3729094424579156449, guid: fcddce2b1e15a0c45a5e66434e94dc6e, type: 3}
      propertyPath: m_AnchoredPosition.y
      value: 0
      objectReference: {fileID: 0}
    - target: {fileID: 3729094424579156449, guid: fcddce2b1e15a0c45a5e66434e94dc6e, type: 3}
      propertyPath: m_SizeDelta.x
      value: 100
      objectReference: {fileID: 0}
    - target: {fileID: 3729094424579156449, guid: fcddce2b1e15a0c45a5e66434e94dc6e, type: 3}
      propertyPath: m_SizeDelta.y
      value: 100
      objectReference: {fileID: 0}
    - target: {fileID: 3729094424579156449, guid: fcddce2b1e15a0c45a5e66434e94dc6e, type: 3}
      propertyPath: m_AnchorMin.x
      value: 0.5
      objectReference: {fileID: 0}
    - target: {fileID: 3729094424579156449, guid: fcddce2b1e15a0c45a5e66434e94dc6e, type: 3}
      propertyPath: m_AnchorMin.y
      value: 0.5
      objectReference: {fileID: 0}
    - target: {fileID: 3729094424579156449, guid: fcddce2b1e15a0c45a5e66434e94dc6e, type: 3}
      propertyPath: m_AnchorMax.x
      value: 0.5
      objectReference: {fileID: 0}
    - target: {fileID: 3729094424579156449, guid: fcddce2b1e15a0c45a5e66434e94dc6e, type: 3}
      propertyPath: m_AnchorMax.y
      value: 0.5
      objectReference: {fileID: 0}
    - target: {fileID: 3729094424579156449, guid: fcddce2b1e15a0c45a5e66434e94dc6e, type: 3}
      propertyPath: m_Pivot.x
      value: 0.5
      objectReference: {fileID: 0}
    - target: {fileID: 3729094424579156449, guid: fcddce2b1e15a0c45a5e66434e94dc6e, type: 3}
      propertyPath: m_Pivot.y
      value: 0.5
      objectReference: {fileID: 0}
    m_RemovedComponents: []
  m_SourcePrefab: {fileID: 100100000, guid: fcddce2b1e15a0c45a5e66434e94dc6e, type: 3}
--- !u!1001 &5049809182095902299
PrefabInstance:
  m_ObjectHideFlags: 0
  serializedVersion: 2
  m_Modification:
    m_TransformParent: {fileID: 1553188541}
    m_Modifications:
    - target: {fileID: 5049809183191021266, guid: a77061f581ded1740b8169a16fe72097, type: 3}
      propertyPath: m_LocalPosition.x
      value: 0
      objectReference: {fileID: 0}
    - target: {fileID: 5049809183191021266, guid: a77061f581ded1740b8169a16fe72097, type: 3}
      propertyPath: m_LocalPosition.y
      value: 0
      objectReference: {fileID: 0}
    - target: {fileID: 5049809183191021266, guid: a77061f581ded1740b8169a16fe72097, type: 3}
      propertyPath: m_LocalPosition.z
      value: 0
      objectReference: {fileID: 0}
    - target: {fileID: 5049809183191021266, guid: a77061f581ded1740b8169a16fe72097, type: 3}
      propertyPath: m_LocalRotation.x
      value: 0
      objectReference: {fileID: 0}
    - target: {fileID: 5049809183191021266, guid: a77061f581ded1740b8169a16fe72097, type: 3}
      propertyPath: m_LocalRotation.y
      value: 0
      objectReference: {fileID: 0}
    - target: {fileID: 5049809183191021266, guid: a77061f581ded1740b8169a16fe72097, type: 3}
      propertyPath: m_LocalRotation.z
      value: 0
      objectReference: {fileID: 0}
    - target: {fileID: 5049809183191021266, guid: a77061f581ded1740b8169a16fe72097, type: 3}
      propertyPath: m_LocalRotation.w
      value: 1
      objectReference: {fileID: 0}
    - target: {fileID: 5049809183191021266, guid: a77061f581ded1740b8169a16fe72097, type: 3}
      propertyPath: m_RootOrder
      value: 4
      objectReference: {fileID: 0}
    - target: {fileID: 5049809183191021266, guid: a77061f581ded1740b8169a16fe72097, type: 3}
      propertyPath: m_LocalEulerAnglesHint.x
      value: 0
      objectReference: {fileID: 0}
    - target: {fileID: 5049809183191021266, guid: a77061f581ded1740b8169a16fe72097, type: 3}
      propertyPath: m_LocalEulerAnglesHint.y
      value: 0
      objectReference: {fileID: 0}
    - target: {fileID: 5049809183191021266, guid: a77061f581ded1740b8169a16fe72097, type: 3}
      propertyPath: m_LocalEulerAnglesHint.z
      value: 0
      objectReference: {fileID: 0}
    - target: {fileID: 5049809183191021266, guid: a77061f581ded1740b8169a16fe72097, type: 3}
      propertyPath: m_AnchoredPosition.x
      value: 0
      objectReference: {fileID: 0}
    - target: {fileID: 5049809183191021266, guid: a77061f581ded1740b8169a16fe72097, type: 3}
      propertyPath: m_AnchoredPosition.y
      value: 0
      objectReference: {fileID: 0}
    - target: {fileID: 5049809183191021266, guid: a77061f581ded1740b8169a16fe72097, type: 3}
      propertyPath: m_SizeDelta.x
      value: 100
      objectReference: {fileID: 0}
    - target: {fileID: 5049809183191021266, guid: a77061f581ded1740b8169a16fe72097, type: 3}
      propertyPath: m_SizeDelta.y
      value: 100
      objectReference: {fileID: 0}
    - target: {fileID: 5049809183191021266, guid: a77061f581ded1740b8169a16fe72097, type: 3}
      propertyPath: m_AnchorMin.x
      value: 0.5
      objectReference: {fileID: 0}
    - target: {fileID: 5049809183191021266, guid: a77061f581ded1740b8169a16fe72097, type: 3}
      propertyPath: m_AnchorMin.y
      value: 0.5
      objectReference: {fileID: 0}
    - target: {fileID: 5049809183191021266, guid: a77061f581ded1740b8169a16fe72097, type: 3}
      propertyPath: m_AnchorMax.x
      value: 0.5
      objectReference: {fileID: 0}
    - target: {fileID: 5049809183191021266, guid: a77061f581ded1740b8169a16fe72097, type: 3}
      propertyPath: m_AnchorMax.y
      value: 0.5
      objectReference: {fileID: 0}
    - target: {fileID: 5049809183191021266, guid: a77061f581ded1740b8169a16fe72097, type: 3}
      propertyPath: m_Pivot.x
      value: 0.5
      objectReference: {fileID: 0}
    - target: {fileID: 5049809183191021266, guid: a77061f581ded1740b8169a16fe72097, type: 3}
      propertyPath: m_Pivot.y
      value: 0.5
      objectReference: {fileID: 0}
    - target: {fileID: 5049809183191021267, guid: a77061f581ded1740b8169a16fe72097, type: 3}
      propertyPath: m_Name
      value: coin
      objectReference: {fileID: 0}
    - target: {fileID: 5049809183191021267, guid: a77061f581ded1740b8169a16fe72097, type: 3}
      propertyPath: m_IsActive
      value: 0
      objectReference: {fileID: 0}
    m_RemovedComponents: []
  m_SourcePrefab: {fileID: 100100000, guid: a77061f581ded1740b8169a16fe72097, type: 3}
--- !u!1001 &5696163906995728819
PrefabInstance:
  m_ObjectHideFlags: 0
  serializedVersion: 2
  m_Modification:
    m_TransformParent: {fileID: 1553188541}
    m_Modifications:
    - target: {fileID: 5696163907010661702, guid: 836cc0eb0277ce44d8b045dba86c2239, type: 3}
      propertyPath: m_LocalPosition.x
      value: 0
      objectReference: {fileID: 0}
    - target: {fileID: 5696163907010661702, guid: 836cc0eb0277ce44d8b045dba86c2239, type: 3}
      propertyPath: m_LocalPosition.y
      value: 0
      objectReference: {fileID: 0}
    - target: {fileID: 5696163907010661702, guid: 836cc0eb0277ce44d8b045dba86c2239, type: 3}
      propertyPath: m_LocalPosition.z
      value: 0
      objectReference: {fileID: 0}
    - target: {fileID: 5696163907010661702, guid: 836cc0eb0277ce44d8b045dba86c2239, type: 3}
      propertyPath: m_LocalRotation.x
      value: 0
      objectReference: {fileID: 0}
    - target: {fileID: 5696163907010661702, guid: 836cc0eb0277ce44d8b045dba86c2239, type: 3}
      propertyPath: m_LocalRotation.y
      value: 0
      objectReference: {fileID: 0}
    - target: {fileID: 5696163907010661702, guid: 836cc0eb0277ce44d8b045dba86c2239, type: 3}
      propertyPath: m_LocalRotation.z
      value: 0
      objectReference: {fileID: 0}
    - target: {fileID: 5696163907010661702, guid: 836cc0eb0277ce44d8b045dba86c2239, type: 3}
      propertyPath: m_LocalRotation.w
      value: 1
      objectReference: {fileID: 0}
    - target: {fileID: 5696163907010661702, guid: 836cc0eb0277ce44d8b045dba86c2239, type: 3}
      propertyPath: m_RootOrder
      value: 6
      objectReference: {fileID: 0}
    - target: {fileID: 5696163907010661702, guid: 836cc0eb0277ce44d8b045dba86c2239, type: 3}
      propertyPath: m_LocalEulerAnglesHint.x
      value: 0
      objectReference: {fileID: 0}
    - target: {fileID: 5696163907010661702, guid: 836cc0eb0277ce44d8b045dba86c2239, type: 3}
      propertyPath: m_LocalEulerAnglesHint.y
      value: 0
      objectReference: {fileID: 0}
    - target: {fileID: 5696163907010661702, guid: 836cc0eb0277ce44d8b045dba86c2239, type: 3}
      propertyPath: m_LocalEulerAnglesHint.z
      value: 0
      objectReference: {fileID: 0}
    - target: {fileID: 5696163907010661702, guid: 836cc0eb0277ce44d8b045dba86c2239, type: 3}
      propertyPath: m_AnchoredPosition.x
      value: 0
      objectReference: {fileID: 0}
    - target: {fileID: 5696163907010661702, guid: 836cc0eb0277ce44d8b045dba86c2239, type: 3}
      propertyPath: m_AnchoredPosition.y
      value: 0
      objectReference: {fileID: 0}
    - target: {fileID: 5696163907010661702, guid: 836cc0eb0277ce44d8b045dba86c2239, type: 3}
      propertyPath: m_SizeDelta.x
      value: 100
      objectReference: {fileID: 0}
    - target: {fileID: 5696163907010661702, guid: 836cc0eb0277ce44d8b045dba86c2239, type: 3}
      propertyPath: m_SizeDelta.y
      value: 100
      objectReference: {fileID: 0}
    - target: {fileID: 5696163907010661702, guid: 836cc0eb0277ce44d8b045dba86c2239, type: 3}
      propertyPath: m_AnchorMin.x
      value: 0.5
      objectReference: {fileID: 0}
    - target: {fileID: 5696163907010661702, guid: 836cc0eb0277ce44d8b045dba86c2239, type: 3}
      propertyPath: m_AnchorMin.y
      value: 0.5
      objectReference: {fileID: 0}
    - target: {fileID: 5696163907010661702, guid: 836cc0eb0277ce44d8b045dba86c2239, type: 3}
      propertyPath: m_AnchorMax.x
      value: 0.5
      objectReference: {fileID: 0}
    - target: {fileID: 5696163907010661702, guid: 836cc0eb0277ce44d8b045dba86c2239, type: 3}
      propertyPath: m_AnchorMax.y
      value: 0.5
      objectReference: {fileID: 0}
    - target: {fileID: 5696163907010661702, guid: 836cc0eb0277ce44d8b045dba86c2239, type: 3}
      propertyPath: m_Pivot.x
      value: 0.5
      objectReference: {fileID: 0}
    - target: {fileID: 5696163907010661702, guid: 836cc0eb0277ce44d8b045dba86c2239, type: 3}
      propertyPath: m_Pivot.y
      value: 0.5
      objectReference: {fileID: 0}
    - target: {fileID: 5696163907010661703, guid: 836cc0eb0277ce44d8b045dba86c2239, type: 3}
      propertyPath: m_Name
      value: giok
      objectReference: {fileID: 0}
    - target: {fileID: 5696163907010661703, guid: 836cc0eb0277ce44d8b045dba86c2239, type: 3}
      propertyPath: m_IsActive
      value: 0
      objectReference: {fileID: 0}
    m_RemovedComponents: []
  m_SourcePrefab: {fileID: 100100000, guid: 836cc0eb0277ce44d8b045dba86c2239, type: 3}
